\relax 
\babel@aux{english}{}
\@writefile{toc}{\contentsline {section}{\numberline {1}The problem}{1}\protected@file@percent }
\@writefile{toc}{\contentsline {section}{\numberline {2}A solution}{1}\protected@file@percent }
\newlabel{spline_definition}{{6}{1}}
\newlabel{conditions}{{7}{2}}
\newlabel{relations}{{8}{2}}
\@writefile{toc}{\contentsline {section}{\numberline {3}Implementation}{2}\protected@file@percent }
\@writefile{lof}{\contentsline {figure}{\numberline {1}{\ignorespaces A comparison of this sub spline to a regular cubic spline and the analytical function.}}{3}\protected@file@percent }
\newlabel{comparison1}{{1}{3}}
\@writefile{toc}{\contentsline {section}{\numberline {4}Extra}{3}\protected@file@percent }
\@writefile{lof}{\contentsline {figure}{\numberline {2}{\ignorespaces A comparison between the derivative of my sub spline, the analytical expression and of the cubic spline.}}{4}\protected@file@percent }
\newlabel{deriv_comparison}{{2}{4}}
\newlabel{highorder}{{9}{4}}
\newlabel{secondcondition}{{10}{4}}
\@writefile{lof}{\contentsline {figure}{\numberline {3}{\ignorespaces A comparison between the integral of the cubic sub spline, the analytical result and the integral of the cubic spline.}}{5}\protected@file@percent }
\newlabel{antideriv_comparison}{{3}{5}}
\@writefile{lof}{\contentsline {figure}{\numberline {4}{\ignorespaces A comparison of the new higher order sub spline to the cubic sub spline, the analytical result and the cubic spline.}}{6}\protected@file@percent }
\newlabel{highcomparison}{{4}{6}}
\@writefile{lof}{\contentsline {figure}{\numberline {5}{\ignorespaces A comparison of the different derivatives. The squiggle behaviour of the quartic sub spline is clear.}}{7}\protected@file@percent }
\newlabel{deriv}{{5}{7}}
