Testing komplex_print function
z is 		 z= 0.840188 + i0.394383
z should be 	 z= 0.840188 + i0.394383
Testing komplex_set
z_set is now 	 z=0.783099+i*0.79844
Should be 	 z=0.783099+i*0.79844
Testing komplex_new
z_new is 	 z=0.840188+i*0.783099
z_new is 	 z=0.840188+i*0.783099
Testing komplex_add
z_add is 	 z=1.62329+i*1.19282
Should be 	 z=1.62329+i*1.19282
Testing komplex_sub
z_sub is 	 z=0.0570885+i*-0.404057
Should be 	 z=0.0570885+i*-0.404057
