\relax 
\providecommand\hyper@newdestlabel[2]{}
\providecommand\BKM@entry[2]{}
\providecommand\HyperFirstAtBeginDocument{\AtBeginDocument}
\HyperFirstAtBeginDocument{\ifx\hyper@anchor\@undefined
\global\let\oldcontentsline\contentsline
\gdef\contentsline#1#2#3#4{\oldcontentsline{#1}{#2}{#3}}
\global\let\oldnewlabel\newlabel
\gdef\newlabel#1#2{\newlabelxx{#1}#2}
\gdef\newlabelxx#1#2#3#4#5#6{\oldnewlabel{#1}{{#2}{#3}}}
\AtEndDocument{\ifx\hyper@anchor\@undefined
\let\contentsline\oldcontentsline
\let\newlabel\oldnewlabel
\fi}
\fi}
\global\let\hyper@last\relax 
\gdef\HyperFirstAtBeginDocument#1{#1}
\providecommand\HyField@AuxAddToFields[1]{}
\providecommand\HyField@AuxAddToCoFields[2]{}
\BKM@entry{id=1,dest={73656374696F6E2E31},srcline={17}}{446566696E6974696F6E}
\BKM@entry{id=2,dest={73656374696F6E2E32},srcline={33}}{4E616D65}
\BKM@entry{id=3,dest={73656374696F6E2E33},srcline={41}}{537461746973746963616C20496E746572707265746174696F6E}
\citation{wiki}
\@writefile{toc}{\contentsline {section}{\numberline {1}Definition}{1}{section.1}\protected@file@percent }
\@writefile{toc}{\contentsline {section}{\numberline {2}Name}{1}{section.2}\protected@file@percent }
\bibcite{wiki}{1}
\@writefile{lof}{\contentsline {figure}{\numberline {1}{\ignorespaces The error function $\mathrm  {erf}(x)$ plottet for $x\in \left [-3,3\right ]$.}}{2}{figure.1}\protected@file@percent }
\newlabel{fig-error}{{1}{2}{The error function $\mathrm {erf}(x)$ plottet for $x\in \left [-3,3\right ]$}{figure.1}{}}
\@writefile{toc}{\contentsline {section}{\numberline {3}Statistical Interpretation}{2}{section.3}\protected@file@percent }
