<?xml version="1.0" encoding="utf-8"  standalone="no"?>
<svg 
 width="600" height="480"
 viewBox="0 0 600 480"
 xmlns="http://www.w3.org/2000/svg"
 xmlns:xlink="http://www.w3.org/1999/xlink"
>

<title>Gnuplot</title>
<desc>Produced by GNUPLOT 5.2 patchlevel 6 </desc>

<g id="gnuplot_canvas">

<rect x="0" y="0" width="600" height="480" fill="#ffffff"/>
<defs>

	<circle id='gpDot' r='0.5' stroke-width='0.5' stroke='currentColor'/>
	<path id='gpPt0' stroke-width='0.222' stroke='currentColor' d='M-1,0 h2 M0,-1 v2'/>
	<path id='gpPt1' stroke-width='0.222' stroke='currentColor' d='M-1,-1 L1,1 M1,-1 L-1,1'/>
	<path id='gpPt2' stroke-width='0.222' stroke='currentColor' d='M-1,0 L1,0 M0,-1 L0,1 M-1,-1 L1,1 M-1,1 L1,-1'/>
	<rect id='gpPt3' stroke-width='0.222' stroke='currentColor' x='-1' y='-1' width='2' height='2'/>
	<rect id='gpPt4' stroke-width='0.222' stroke='currentColor' fill='currentColor' x='-1' y='-1' width='2' height='2'/>
	<circle id='gpPt5' stroke-width='0.222' stroke='currentColor' cx='0' cy='0' r='1'/>
	<use xlink:href='#gpPt5' id='gpPt6' fill='currentColor' stroke='none'/>
	<path id='gpPt7' stroke-width='0.222' stroke='currentColor' d='M0,-1.33 L-1.33,0.67 L1.33,0.67 z'/>
	<use xlink:href='#gpPt7' id='gpPt8' fill='currentColor' stroke='none'/>
	<use xlink:href='#gpPt7' id='gpPt9' stroke='currentColor' transform='rotate(180)'/>
	<use xlink:href='#gpPt9' id='gpPt10' fill='currentColor' stroke='none'/>
	<use xlink:href='#gpPt3' id='gpPt11' stroke='currentColor' transform='rotate(45)'/>
	<use xlink:href='#gpPt11' id='gpPt12' fill='currentColor' stroke='none'/>
	<path id='gpPt13' stroke-width='0.222' stroke='currentColor' d='M0,1.330 L1.265,0.411 L0.782,-1.067 L-0.782,-1.076 L-1.265,0.411 z'/>
	<use xlink:href='#gpPt13' id='gpPt14' fill='currentColor' stroke='none'/>
	<filter id='textbox' filterUnits='objectBoundingBox' x='0' y='0' height='1' width='1'>
	  <feFlood flood-color='#FFFFFF' flood-opacity='1' result='bgnd'/>
	  <feComposite in='SourceGraphic' in2='bgnd' operator='atop'/>
	</filter>
	<filter id='greybox' filterUnits='objectBoundingBox' x='0' y='0' height='1' width='1'>
	  <feFlood flood-color='lightgrey' flood-opacity='1' result='grey'/>
	  <feComposite in='SourceGraphic' in2='grey' operator='atop'/>
	</filter>
</defs>
<g fill="none" color="#FFFFFF" stroke="currentColor" stroke-width="1.00" stroke-linecap="butt" stroke-linejoin="miter">
</g>
<g fill="none" color="black" stroke="currentColor" stroke-width="1.00" stroke-linecap="butt" stroke-linejoin="miter">
</g>
<g fill="none" color="black" stroke="black" stroke-width="0.50" stroke-linecap="butt" stroke-linejoin="miter">
</g>
<g fill="none" color="gray" stroke="currentColor" stroke-width="0.50" stroke-linecap="butt" stroke-linejoin="miter">
	<path stroke='gray' stroke-dasharray='2,4' class="gridline"  d='M71.9,422.4 L575.0,422.4  '/></g>
<g fill="none" color="gray" stroke="gray" stroke-width="1.00" stroke-linecap="butt" stroke-linejoin="miter">
</g>
<g fill="none" color="black" stroke="currentColor" stroke-width="1.00" stroke-linecap="butt" stroke-linejoin="miter">
	<path stroke='black'  d='M71.9,422.4 L80.9,422.4 M575.0,422.4 L566.0,422.4  '/>	<g transform="translate(63.6,426.3)" stroke="none" fill="black" font-family="Arial" font-size="12.00"  text-anchor="end">
		<text><tspan font-family="Arial" > 0</tspan></text>
	</g>
</g>
<g fill="none" color="black" stroke="currentColor" stroke-width="1.00" stroke-linecap="butt" stroke-linejoin="miter">
</g>
<g fill="none" color="black" stroke="black" stroke-width="0.50" stroke-linecap="butt" stroke-linejoin="miter">
</g>
<g fill="none" color="gray" stroke="currentColor" stroke-width="0.50" stroke-linecap="butt" stroke-linejoin="miter">
	<path stroke='gray' stroke-dasharray='2,4' class="gridline"  d='M71.9,321.3 L575.0,321.3  '/></g>
<g fill="none" color="gray" stroke="gray" stroke-width="1.00" stroke-linecap="butt" stroke-linejoin="miter">
</g>
<g fill="none" color="black" stroke="currentColor" stroke-width="1.00" stroke-linecap="butt" stroke-linejoin="miter">
	<path stroke='black'  d='M71.9,321.3 L80.9,321.3 M575.0,321.3 L566.0,321.3  '/>	<g transform="translate(63.6,325.2)" stroke="none" fill="black" font-family="Arial" font-size="12.00"  text-anchor="end">
		<text><tspan font-family="Arial" > 0.5</tspan></text>
	</g>
</g>
<g fill="none" color="black" stroke="currentColor" stroke-width="1.00" stroke-linecap="butt" stroke-linejoin="miter">
</g>
<g fill="none" color="black" stroke="black" stroke-width="0.50" stroke-linecap="butt" stroke-linejoin="miter">
</g>
<g fill="none" color="gray" stroke="currentColor" stroke-width="0.50" stroke-linecap="butt" stroke-linejoin="miter">
	<path stroke='gray' stroke-dasharray='2,4' class="gridline"  d='M71.9,220.2 L575.0,220.2  '/></g>
<g fill="none" color="gray" stroke="gray" stroke-width="1.00" stroke-linecap="butt" stroke-linejoin="miter">
</g>
<g fill="none" color="black" stroke="currentColor" stroke-width="1.00" stroke-linecap="butt" stroke-linejoin="miter">
	<path stroke='black'  d='M71.9,220.2 L80.9,220.2 M575.0,220.2 L566.0,220.2  '/>	<g transform="translate(63.6,224.1)" stroke="none" fill="black" font-family="Arial" font-size="12.00"  text-anchor="end">
		<text><tspan font-family="Arial" > 1</tspan></text>
	</g>
</g>
<g fill="none" color="black" stroke="currentColor" stroke-width="1.00" stroke-linecap="butt" stroke-linejoin="miter">
</g>
<g fill="none" color="black" stroke="black" stroke-width="0.50" stroke-linecap="butt" stroke-linejoin="miter">
</g>
<g fill="none" color="gray" stroke="currentColor" stroke-width="0.50" stroke-linecap="butt" stroke-linejoin="miter">
	<path stroke='gray' stroke-dasharray='2,4' class="gridline"  d='M71.9,119.2 L575.0,119.2  '/></g>
<g fill="none" color="gray" stroke="gray" stroke-width="1.00" stroke-linecap="butt" stroke-linejoin="miter">
</g>
<g fill="none" color="black" stroke="currentColor" stroke-width="1.00" stroke-linecap="butt" stroke-linejoin="miter">
	<path stroke='black'  d='M71.9,119.2 L80.9,119.2 M575.0,119.2 L566.0,119.2  '/>	<g transform="translate(63.6,123.1)" stroke="none" fill="black" font-family="Arial" font-size="12.00"  text-anchor="end">
		<text><tspan font-family="Arial" > 1.5</tspan></text>
	</g>
</g>
<g fill="none" color="black" stroke="currentColor" stroke-width="1.00" stroke-linecap="butt" stroke-linejoin="miter">
</g>
<g fill="none" color="black" stroke="black" stroke-width="0.50" stroke-linecap="butt" stroke-linejoin="miter">
</g>
<g fill="none" color="gray" stroke="currentColor" stroke-width="0.50" stroke-linecap="butt" stroke-linejoin="miter">
	<path stroke='gray' stroke-dasharray='2,4' class="gridline"  d='M71.9,18.1 L575.0,18.1  '/></g>
<g fill="none" color="gray" stroke="gray" stroke-width="1.00" stroke-linecap="butt" stroke-linejoin="miter">
</g>
<g fill="none" color="black" stroke="currentColor" stroke-width="1.00" stroke-linecap="butt" stroke-linejoin="miter">
	<path stroke='black'  d='M71.9,18.1 L80.9,18.1 M575.0,18.1 L566.0,18.1  '/>	<g transform="translate(63.6,22.0)" stroke="none" fill="black" font-family="Arial" font-size="12.00"  text-anchor="end">
		<text><tspan font-family="Arial" > 2</tspan></text>
	</g>
</g>
<g fill="none" color="black" stroke="currentColor" stroke-width="1.00" stroke-linecap="butt" stroke-linejoin="miter">
</g>
<g fill="none" color="black" stroke="black" stroke-width="0.50" stroke-linecap="butt" stroke-linejoin="miter">
</g>
<g fill="none" color="gray" stroke="currentColor" stroke-width="0.50" stroke-linecap="butt" stroke-linejoin="miter">
	<path stroke='gray' stroke-dasharray='2,4' class="gridline"  d='M71.9,422.4 L71.9,18.1  '/></g>
<g fill="none" color="gray" stroke="gray" stroke-width="1.00" stroke-linecap="butt" stroke-linejoin="miter">
</g>
<g fill="none" color="black" stroke="currentColor" stroke-width="1.00" stroke-linecap="butt" stroke-linejoin="miter">
	<path stroke='black'  d='M71.9,422.4 L71.9,413.4 M71.9,18.1 L71.9,27.1  '/>	<g transform="translate(71.9,444.3)" stroke="none" fill="black" font-family="Arial" font-size="12.00"  text-anchor="middle">
		<text><tspan font-family="Arial" > 0</tspan></text>
	</g>
</g>
<g fill="none" color="black" stroke="currentColor" stroke-width="1.00" stroke-linecap="butt" stroke-linejoin="miter">
</g>
<g fill="none" color="black" stroke="black" stroke-width="0.50" stroke-linecap="butt" stroke-linejoin="miter">
</g>
<g fill="none" color="gray" stroke="currentColor" stroke-width="0.50" stroke-linecap="butt" stroke-linejoin="miter">
	<path stroke='gray' stroke-dasharray='2,4' class="gridline"  d='M172.5,422.4 L172.5,18.1  '/></g>
<g fill="none" color="gray" stroke="gray" stroke-width="1.00" stroke-linecap="butt" stroke-linejoin="miter">
</g>
<g fill="none" color="black" stroke="currentColor" stroke-width="1.00" stroke-linecap="butt" stroke-linejoin="miter">
	<path stroke='black'  d='M172.5,422.4 L172.5,413.4 M172.5,18.1 L172.5,27.1  '/>	<g transform="translate(172.5,444.3)" stroke="none" fill="black" font-family="Arial" font-size="12.00"  text-anchor="middle">
		<text><tspan font-family="Arial" > 1</tspan></text>
	</g>
</g>
<g fill="none" color="black" stroke="currentColor" stroke-width="1.00" stroke-linecap="butt" stroke-linejoin="miter">
</g>
<g fill="none" color="black" stroke="black" stroke-width="0.50" stroke-linecap="butt" stroke-linejoin="miter">
</g>
<g fill="none" color="gray" stroke="currentColor" stroke-width="0.50" stroke-linecap="butt" stroke-linejoin="miter">
	<path stroke='gray' stroke-dasharray='2,4' class="gridline"  d='M273.1,422.4 L273.1,18.1  '/></g>
<g fill="none" color="gray" stroke="gray" stroke-width="1.00" stroke-linecap="butt" stroke-linejoin="miter">
</g>
<g fill="none" color="black" stroke="currentColor" stroke-width="1.00" stroke-linecap="butt" stroke-linejoin="miter">
	<path stroke='black'  d='M273.1,422.4 L273.1,413.4 M273.1,18.1 L273.1,27.1  '/>	<g transform="translate(273.1,444.3)" stroke="none" fill="black" font-family="Arial" font-size="12.00"  text-anchor="middle">
		<text><tspan font-family="Arial" > 2</tspan></text>
	</g>
</g>
<g fill="none" color="black" stroke="currentColor" stroke-width="1.00" stroke-linecap="butt" stroke-linejoin="miter">
</g>
<g fill="none" color="black" stroke="black" stroke-width="0.50" stroke-linecap="butt" stroke-linejoin="miter">
</g>
<g fill="none" color="gray" stroke="currentColor" stroke-width="0.50" stroke-linecap="butt" stroke-linejoin="miter">
	<path stroke='gray' stroke-dasharray='2,4' class="gridline"  d='M373.8,422.4 L373.8,413.4 M373.8,395.4 L373.8,18.1  '/></g>
<g fill="none" color="gray" stroke="gray" stroke-width="1.00" stroke-linecap="butt" stroke-linejoin="miter">
</g>
<g fill="none" color="black" stroke="currentColor" stroke-width="1.00" stroke-linecap="butt" stroke-linejoin="miter">
	<path stroke='black'  d='M373.8,422.4 L373.8,413.4 M373.8,18.1 L373.8,27.1  '/>	<g transform="translate(373.8,444.3)" stroke="none" fill="black" font-family="Arial" font-size="12.00"  text-anchor="middle">
		<text><tspan font-family="Arial" > 3</tspan></text>
	</g>
</g>
<g fill="none" color="black" stroke="currentColor" stroke-width="1.00" stroke-linecap="butt" stroke-linejoin="miter">
</g>
<g fill="none" color="black" stroke="black" stroke-width="0.50" stroke-linecap="butt" stroke-linejoin="miter">
</g>
<g fill="none" color="gray" stroke="currentColor" stroke-width="0.50" stroke-linecap="butt" stroke-linejoin="miter">
	<path stroke='gray' stroke-dasharray='2,4' class="gridline"  d='M474.4,422.4 L474.4,413.4 M474.4,395.4 L474.4,18.1  '/></g>
<g fill="none" color="gray" stroke="gray" stroke-width="1.00" stroke-linecap="butt" stroke-linejoin="miter">
</g>
<g fill="none" color="black" stroke="currentColor" stroke-width="1.00" stroke-linecap="butt" stroke-linejoin="miter">
	<path stroke='black'  d='M474.4,422.4 L474.4,413.4 M474.4,18.1 L474.4,27.1  '/>	<g transform="translate(474.4,444.3)" stroke="none" fill="black" font-family="Arial" font-size="12.00"  text-anchor="middle">
		<text><tspan font-family="Arial" > 4</tspan></text>
	</g>
</g>
<g fill="none" color="black" stroke="currentColor" stroke-width="1.00" stroke-linecap="butt" stroke-linejoin="miter">
</g>
<g fill="none" color="black" stroke="black" stroke-width="0.50" stroke-linecap="butt" stroke-linejoin="miter">
</g>
<g fill="none" color="gray" stroke="currentColor" stroke-width="0.50" stroke-linecap="butt" stroke-linejoin="miter">
	<path stroke='gray' stroke-dasharray='2,4' class="gridline"  d='M575.0,422.4 L575.0,18.1  '/></g>
<g fill="none" color="gray" stroke="gray" stroke-width="1.00" stroke-linecap="butt" stroke-linejoin="miter">
</g>
<g fill="none" color="black" stroke="currentColor" stroke-width="1.00" stroke-linecap="butt" stroke-linejoin="miter">
	<path stroke='black'  d='M575.0,422.4 L575.0,413.4 M575.0,18.1 L575.0,27.1  '/>	<g transform="translate(575.0,444.3)" stroke="none" fill="black" font-family="Arial" font-size="12.00"  text-anchor="middle">
		<text><tspan font-family="Arial" > 5</tspan></text>
	</g>
</g>
<g fill="none" color="black" stroke="currentColor" stroke-width="1.00" stroke-linecap="butt" stroke-linejoin="miter">
</g>
<g fill="none" color="black" stroke="currentColor" stroke-width="1.00" stroke-linecap="butt" stroke-linejoin="miter">
	<path stroke='black'  d='M71.9,18.1 L71.9,422.4 L575.0,422.4 L575.0,18.1 L71.9,18.1 Z  '/></g>
<g fill="none" color="black" stroke="currentColor" stroke-width="1.00" stroke-linecap="butt" stroke-linejoin="miter">
	<g transform="translate(16.3,220.3) rotate(270)" stroke="none" fill="black" font-family="Arial" font-size="12.00"  text-anchor="middle">
		<text><tspan font-family="Arial" >Alpha</tspan></text>
	</g>
</g>
<g fill="none" color="black" stroke="currentColor" stroke-width="1.00" stroke-linecap="butt" stroke-linejoin="miter">
	<g transform="translate(323.4,471.3)" stroke="none" fill="black" font-family="Arial" font-size="12.00"  text-anchor="middle">
		<text><tspan font-family="Arial" >E(Alpha)</tspan></text>
	</g>
</g>
<g fill="none" color="black" stroke="currentColor" stroke-width="1.00" stroke-linecap="butt" stroke-linejoin="miter">
</g>
	<g id="gnuplot_plot_1" ><title>result of variational method</title>
<g fill="none" color="black" stroke="currentColor" stroke-width="1.00" stroke-linecap="butt" stroke-linejoin="miter">
	<g transform="translate(507.9,408.3)" stroke="none" fill="black" font-family="Arial" font-size="12.00"  text-anchor="end">
		<text><tspan font-family="Arial" >result of variational method</tspan></text>
	</g>
</g>
<g fill="none" color="black" stroke="currentColor" stroke-width="1.00" stroke-linecap="butt" stroke-linejoin="miter">
	<path stroke='rgb(148,   0, 211)'  d='M516.2,404.4 L558.4,404.4 M84.7,18.1 L85.0,27.1 L86.0,54.3 L87.0,77.9 L88.0,98.5 L89.0,116.5
		L90.0,132.5 L91.0,146.8 L92.0,159.6 L93.0,171.1 L94.0,181.6 L95.0,191.0 L96.0,199.7 L97.1,207.6
		L98.1,214.9 L99.1,221.6 L100.1,227.8 L101.1,233.5 L102.1,238.8 L103.1,243.7 L104.1,248.3 L105.1,252.6
		L106.1,256.6 L107.1,260.3 L108.1,263.8 L109.1,267.1 L110.1,270.2 L111.1,273.1 L112.1,275.8 L113.2,278.4
		L114.2,280.8 L115.2,283.1 L116.2,285.3 L117.2,287.4 L118.2,289.3 L119.2,291.1 L120.2,292.9 L121.2,294.5
		L122.2,296.1 L123.2,297.5 L124.2,298.9 L125.2,300.3 L126.2,301.5 L127.2,302.7 L128.2,303.9 L129.3,304.9
		L130.3,306.0 L131.3,306.9 L132.3,307.8 L133.3,308.7 L134.3,309.6 L135.3,310.3 L136.3,311.1 L137.3,311.8
		L138.3,312.5 L139.3,313.1 L140.3,313.7 L141.3,314.3 L142.3,314.8 L143.3,315.3 L144.3,315.8 L145.4,316.3
		L146.4,316.7 L147.4,317.1 L148.4,317.5 L149.4,317.9 L150.4,318.2 L151.4,318.5 L152.4,318.8 L153.4,319.1
		L154.4,319.3 L155.4,319.6 L156.4,319.8 L157.4,320.0 L158.4,320.2 L159.4,320.3 L160.4,320.5 L161.5,320.6
		L162.5,320.8 L163.5,320.9 L164.5,321.0 L165.5,321.1 L166.5,321.1 L167.5,321.2 L168.5,321.2 L169.5,321.3
		L170.5,321.3 L171.5,321.3 L172.5,321.3 L173.5,321.3 L174.5,321.3 L175.5,321.3 L176.5,321.2 L177.6,321.2
		L178.6,321.2 L179.6,321.1 L180.6,321.0 L181.6,320.9 L182.6,320.9 L183.6,320.8 L184.6,320.7 L185.6,320.6
		L186.6,320.5 L187.6,320.3 L188.6,320.2 L189.6,320.1 L190.6,319.9 L191.6,319.8 L192.6,319.6 L193.7,319.5
		L194.7,319.3 L195.7,319.2 L196.7,319.0 L197.7,318.8 L198.7,318.6 L199.7,318.4 L200.7,318.2 L201.7,318.0
		L202.7,317.8 L203.7,317.6 L204.7,317.4 L205.7,317.2 L206.7,317.0 L207.7,316.7 L208.7,316.5 L209.7,316.3
		L210.8,316.0 L211.8,315.8 L212.8,315.5 L213.8,315.3 L214.8,315.0 L215.8,314.8 L216.8,314.5 L217.8,314.3
		L218.8,314.0 L219.8,313.7 L220.8,313.5 L221.8,313.2 L222.8,312.9 L223.8,312.6 L224.8,312.3 L225.8,312.0
		L226.9,311.8 L227.9,311.5 L228.9,311.2 L229.9,310.9 L230.9,310.6 L231.9,310.3 L232.9,310.0 L233.9,309.6
		L234.9,309.3 L235.9,309.0 L236.9,308.7 L237.9,308.4 L238.9,308.1 L239.9,307.7 L240.9,307.4 L241.9,307.1
		L243.0,306.8 L244.0,306.4 L245.0,306.1 L246.0,305.8 L247.0,305.4 L248.0,305.1 L249.0,304.7 L250.0,304.4
		L251.0,304.1 L252.0,303.7 L253.0,303.4 L254.0,303.0 L255.0,302.7 L256.0,302.3 L257.0,301.9 L258.0,301.6
		L259.1,301.2 L260.1,300.9 L261.1,300.5 L262.1,300.1 L263.1,299.8 L264.1,299.4 L265.1,299.0 L266.1,298.7
		L267.1,298.3 L268.1,297.9 L269.1,297.6 L270.1,297.2 L271.1,296.8 L272.1,296.4 L273.1,296.1 L274.1,295.7
		L275.2,295.3 L276.2,294.9 L277.2,294.5 L278.2,294.1 L279.2,293.8 L280.2,293.4 L281.2,293.0 L282.2,292.6
		L283.2,292.2 L284.2,291.8 L285.2,291.4 L286.2,291.0 L287.2,290.6 L288.2,290.2 L289.2,289.8 L290.2,289.4
		L291.3,289.0 L292.3,288.6 L293.3,288.2 L294.3,287.8 L295.3,287.4 L296.3,287.0 L297.3,286.6 L298.3,286.2
		L299.3,285.8 L300.3,285.4 L301.3,285.0 L302.3,284.6 L303.3,284.2 L304.3,283.8 L305.3,283.4 L306.3,283.0
		L307.4,282.5 L308.4,282.1 L309.4,281.7 L310.4,281.3 L311.4,280.9 L312.4,280.5 L313.4,280.1 L314.4,279.6
		L315.4,279.2 L316.4,278.8 L317.4,278.4 L318.4,278.0 L319.4,277.5 L320.4,277.1 L321.4,276.7 L322.4,276.3
		L323.5,275.8 L324.5,275.4 L325.5,275.0 L326.5,274.6 L327.5,274.1 L328.5,273.7 L329.5,273.3 L330.5,272.9
		L331.5,272.4 L332.5,272.0 L333.5,271.6 L334.5,271.1 L335.5,270.7 L336.5,270.3 L337.5,269.8 L338.5,269.4
		L339.5,269.0 L340.6,268.5 L341.6,268.1 L342.6,267.7 L343.6,267.2 L344.6,266.8 L345.6,266.4 L346.6,265.9
		L347.6,265.5 L348.6,265.0 L349.6,264.6 L350.6,264.2 L351.6,263.7 L352.6,263.3 L353.6,262.8 L354.6,262.4
		L355.6,262.0 L356.7,261.5 L357.7,261.1 L358.7,260.6 L359.7,260.2 L360.7,259.7 L361.7,259.3 L362.7,258.9
		L363.7,258.4 L364.7,258.0 L365.7,257.5 L366.7,257.1 L367.7,256.6 L368.7,256.2 L369.7,255.7 L370.7,255.3
		L371.7,254.8 L372.8,254.4 L373.8,253.9 L374.8,253.5 L375.8,253.0 L376.8,252.6 L377.8,252.1 L378.8,251.7
		L379.8,251.2 L380.8,250.8 L381.8,250.3 L382.8,249.9 L383.8,249.4 L384.8,249.0 L385.8,248.5 L386.8,248.1
		L387.8,247.6 L388.9,247.2 L389.9,246.7 L390.9,246.3 L391.9,245.8 L392.9,245.3 L393.9,244.9 L394.9,244.4
		L395.9,244.0 L396.9,243.5 L397.9,243.1 L398.9,242.6 L399.9,242.1 L400.9,241.7 L401.9,241.2 L402.9,240.8
		L403.9,240.3 L405.0,239.9 L406.0,239.4 L407.0,238.9 L408.0,238.5 L409.0,238.0 L410.0,237.6 L411.0,237.1
		L412.0,236.6 L413.0,236.2 L414.0,235.7 L415.0,235.2 L416.0,234.8 L417.0,234.3 L418.0,233.9 L419.0,233.4
		L420.0,232.9 L421.1,232.5 L422.1,232.0 L423.1,231.5 L424.1,231.1 L425.1,230.6 L426.1,230.2 L427.1,229.7
		L428.1,229.2 L429.1,228.8 L430.1,228.3 L431.1,227.8 L432.1,227.4 L433.1,226.9 L434.1,226.4 L435.1,226.0
		L436.1,225.5 L437.2,225.0 L438.2,224.6 L439.2,224.1 L440.2,223.6 L441.2,223.2 L442.2,222.7 L443.2,222.2
		L444.2,221.8 L445.2,221.3 L446.2,220.8 L447.2,220.3 L448.2,219.9 L449.2,219.4 L450.2,218.9 L451.2,218.5
		L452.2,218.0 L453.2,217.5 L454.3,217.1 L455.3,216.6 L456.3,216.1 L457.3,215.6 L458.3,215.2 L459.3,214.7
		L460.3,214.2 L461.3,213.8 L462.3,213.3 L463.3,212.8 L464.3,212.3 L465.3,211.9 L466.3,211.4 L467.3,210.9
		L468.3,210.5 L469.3,210.0 L470.4,209.5 L471.4,209.0 L472.4,208.6 L473.4,208.1 L474.4,207.6 L475.4,207.1
		L476.4,206.7 L477.4,206.2 L478.4,205.7 L479.4,205.2 L480.4,204.8 L481.4,204.3 L482.4,203.8 L483.4,203.3
		L484.4,202.9 L485.4,202.4 L486.5,201.9 L487.5,201.4 L488.5,201.0 L489.5,200.5 L490.5,200.0 L491.5,199.5
		L492.5,199.1 L493.5,198.6 L494.5,198.1 L495.5,197.6 L496.5,197.2 L497.5,196.7 L498.5,196.2 L499.5,195.7
		L500.5,195.2 L501.5,194.8 L502.6,194.3 L503.6,193.8 L504.6,193.3 L505.6,192.9 L506.6,192.4 L507.6,191.9
		L508.6,191.4 L509.6,190.9 L510.6,190.5 L511.6,190.0 L512.6,189.5 L513.6,189.0 L514.6,188.5 L515.6,188.1
		L516.6,187.6 L517.6,187.1 L518.7,186.6 L519.7,186.2 L520.7,185.7 L521.7,185.2 L522.7,184.7 L523.7,184.2
		L524.7,183.7 L525.7,183.3 L526.7,182.8 L527.7,182.3 L528.7,181.8 L529.7,181.3 L530.7,180.9 L531.7,180.4
		L532.7,179.9 L533.7,179.4 L534.8,178.9 L535.8,178.5 L536.8,178.0 L537.8,177.5 L538.8,177.0 L539.8,176.5
		L540.8,176.0 L541.8,175.6 L542.8,175.1 L543.8,174.6 L544.8,174.1 L545.8,173.6 L546.8,173.2 L547.8,172.7
		L548.8,172.2 L549.8,171.7 L550.9,171.2 L551.9,170.7 L552.9,170.3 L553.9,169.8 L554.9,169.3 L555.9,168.8
		L556.9,168.3 L557.9,167.8 L558.9,167.4 L559.9,166.9 L560.9,166.4 L561.9,165.9 L562.9,165.4 L563.9,164.9
		L564.9,164.5 L565.9,164.0 L567.0,163.5 L568.0,163.0 L569.0,162.5 L570.0,162.0 L571.0,161.5 L572.0,161.1
		L573.0,160.6 L574.0,160.1  '/></g>
	</g>
<g fill="none" color="#FFFFFF" stroke="rgb(148,   0, 211)" stroke-width="2.00" stroke-linecap="butt" stroke-linejoin="miter">
</g>
<g fill="none" color="black" stroke="currentColor" stroke-width="2.00" stroke-linecap="butt" stroke-linejoin="miter">
</g>
<g fill="none" color="black" stroke="black" stroke-width="1.00" stroke-linecap="butt" stroke-linejoin="miter">
</g>
<g fill="none" color="black" stroke="currentColor" stroke-width="1.00" stroke-linecap="butt" stroke-linejoin="miter">
	<path stroke='black'  d='M71.9,18.1 L71.9,422.4 L575.0,422.4 L575.0,18.1 L71.9,18.1 Z  '/></g>
<g fill="none" color="black" stroke="currentColor" stroke-width="1.00" stroke-linecap="butt" stroke-linejoin="miter">
</g>
</g>
</svg>

