<?xml version="1.0" encoding="utf-8"  standalone="no"?>
<svg 
 width="600" height="480"
 viewBox="0 0 600 480"
 xmlns="http://www.w3.org/2000/svg"
 xmlns:xlink="http://www.w3.org/1999/xlink"
>

<title>Gnuplot</title>
<desc>Produced by GNUPLOT 5.2 patchlevel 6 </desc>

<g id="gnuplot_canvas">

<rect x="0" y="0" width="600" height="480" fill="#ffffff"/>
<defs>

	<circle id='gpDot' r='0.5' stroke-width='0.5' stroke='currentColor'/>
	<path id='gpPt0' stroke-width='0.222' stroke='currentColor' d='M-1,0 h2 M0,-1 v2'/>
	<path id='gpPt1' stroke-width='0.222' stroke='currentColor' d='M-1,-1 L1,1 M1,-1 L-1,1'/>
	<path id='gpPt2' stroke-width='0.222' stroke='currentColor' d='M-1,0 L1,0 M0,-1 L0,1 M-1,-1 L1,1 M-1,1 L1,-1'/>
	<rect id='gpPt3' stroke-width='0.222' stroke='currentColor' x='-1' y='-1' width='2' height='2'/>
	<rect id='gpPt4' stroke-width='0.222' stroke='currentColor' fill='currentColor' x='-1' y='-1' width='2' height='2'/>
	<circle id='gpPt5' stroke-width='0.222' stroke='currentColor' cx='0' cy='0' r='1'/>
	<use xlink:href='#gpPt5' id='gpPt6' fill='currentColor' stroke='none'/>
	<path id='gpPt7' stroke-width='0.222' stroke='currentColor' d='M0,-1.33 L-1.33,0.67 L1.33,0.67 z'/>
	<use xlink:href='#gpPt7' id='gpPt8' fill='currentColor' stroke='none'/>
	<use xlink:href='#gpPt7' id='gpPt9' stroke='currentColor' transform='rotate(180)'/>
	<use xlink:href='#gpPt9' id='gpPt10' fill='currentColor' stroke='none'/>
	<use xlink:href='#gpPt3' id='gpPt11' stroke='currentColor' transform='rotate(45)'/>
	<use xlink:href='#gpPt11' id='gpPt12' fill='currentColor' stroke='none'/>
	<path id='gpPt13' stroke-width='0.222' stroke='currentColor' d='M0,1.330 L1.265,0.411 L0.782,-1.067 L-0.782,-1.076 L-1.265,0.411 z'/>
	<use xlink:href='#gpPt13' id='gpPt14' fill='currentColor' stroke='none'/>
	<filter id='textbox' filterUnits='objectBoundingBox' x='0' y='0' height='1' width='1'>
	  <feFlood flood-color='#FFFFFF' flood-opacity='1' result='bgnd'/>
	  <feComposite in='SourceGraphic' in2='bgnd' operator='atop'/>
	</filter>
	<filter id='greybox' filterUnits='objectBoundingBox' x='0' y='0' height='1' width='1'>
	  <feFlood flood-color='lightgrey' flood-opacity='1' result='grey'/>
	  <feComposite in='SourceGraphic' in2='grey' operator='atop'/>
	</filter>
</defs>
<g fill="none" color="#FFFFFF" stroke="currentColor" stroke-width="1.00" stroke-linecap="butt" stroke-linejoin="miter">
</g>
<g fill="none" color="black" stroke="currentColor" stroke-width="1.00" stroke-linecap="butt" stroke-linejoin="miter">
	<path stroke='black'  d='M80.2,404.4 L89.2,404.4 M575.0,404.4 L566.0,404.4  '/>	<g transform="translate(71.9,408.3)" stroke="none" fill="black" font-family="Arial" font-size="12.00"  text-anchor="end">
		<text><tspan font-family="Arial" > 0</tspan></text>
	</g>
</g>
<g fill="none" color="black" stroke="currentColor" stroke-width="1.00" stroke-linecap="butt" stroke-linejoin="miter">
	<path stroke='black'  d='M80.2,360.6 L89.2,360.6 M575.0,360.6 L566.0,360.6  '/>	<g transform="translate(71.9,364.5)" stroke="none" fill="black" font-family="Arial" font-size="12.00"  text-anchor="end">
		<text><tspan font-family="Arial" > 0.05</tspan></text>
	</g>
</g>
<g fill="none" color="black" stroke="currentColor" stroke-width="1.00" stroke-linecap="butt" stroke-linejoin="miter">
	<path stroke='black'  d='M80.2,316.8 L89.2,316.8 M575.0,316.8 L566.0,316.8  '/>	<g transform="translate(71.9,320.7)" stroke="none" fill="black" font-family="Arial" font-size="12.00"  text-anchor="end">
		<text><tspan font-family="Arial" > 0.1</tspan></text>
	</g>
</g>
<g fill="none" color="black" stroke="currentColor" stroke-width="1.00" stroke-linecap="butt" stroke-linejoin="miter">
	<path stroke='black'  d='M80.2,273.0 L89.2,273.0 M575.0,273.0 L566.0,273.0  '/>	<g transform="translate(71.9,276.9)" stroke="none" fill="black" font-family="Arial" font-size="12.00"  text-anchor="end">
		<text><tspan font-family="Arial" > 0.15</tspan></text>
	</g>
</g>
<g fill="none" color="black" stroke="currentColor" stroke-width="1.00" stroke-linecap="butt" stroke-linejoin="miter">
	<path stroke='black'  d='M80.2,229.2 L89.2,229.2 M575.0,229.2 L566.0,229.2  '/>	<g transform="translate(71.9,233.1)" stroke="none" fill="black" font-family="Arial" font-size="12.00"  text-anchor="end">
		<text><tspan font-family="Arial" > 0.2</tspan></text>
	</g>
</g>
<g fill="none" color="black" stroke="currentColor" stroke-width="1.00" stroke-linecap="butt" stroke-linejoin="miter">
	<path stroke='black'  d='M80.2,185.5 L89.2,185.5 M575.0,185.5 L566.0,185.5  '/>	<g transform="translate(71.9,189.4)" stroke="none" fill="black" font-family="Arial" font-size="12.00"  text-anchor="end">
		<text><tspan font-family="Arial" > 0.25</tspan></text>
	</g>
</g>
<g fill="none" color="black" stroke="currentColor" stroke-width="1.00" stroke-linecap="butt" stroke-linejoin="miter">
	<path stroke='black'  d='M80.2,141.7 L89.2,141.7 M575.0,141.7 L566.0,141.7  '/>	<g transform="translate(71.9,145.6)" stroke="none" fill="black" font-family="Arial" font-size="12.00"  text-anchor="end">
		<text><tspan font-family="Arial" > 0.3</tspan></text>
	</g>
</g>
<g fill="none" color="black" stroke="currentColor" stroke-width="1.00" stroke-linecap="butt" stroke-linejoin="miter">
	<path stroke='black'  d='M80.2,97.9 L89.2,97.9 M575.0,97.9 L566.0,97.9  '/>	<g transform="translate(71.9,101.8)" stroke="none" fill="black" font-family="Arial" font-size="12.00"  text-anchor="end">
		<text><tspan font-family="Arial" > 0.35</tspan></text>
	</g>
</g>
<g fill="none" color="black" stroke="currentColor" stroke-width="1.00" stroke-linecap="butt" stroke-linejoin="miter">
	<path stroke='black'  d='M80.2,54.1 L89.2,54.1 M575.0,54.1 L566.0,54.1  '/>	<g transform="translate(71.9,58.0)" stroke="none" fill="black" font-family="Arial" font-size="12.00"  text-anchor="end">
		<text><tspan font-family="Arial" > 0.4</tspan></text>
	</g>
</g>
<g fill="none" color="black" stroke="currentColor" stroke-width="1.00" stroke-linecap="butt" stroke-linejoin="miter">
	<path stroke='black'  d='M80.2,404.4 L80.2,395.4 M80.2,54.1 L80.2,63.1  '/>	<g transform="translate(80.2,426.3)" stroke="none" fill="black" font-family="Arial" font-size="12.00"  text-anchor="middle">
		<text><tspan font-family="Arial" > 0</tspan></text>
	</g>
</g>
<g fill="none" color="black" stroke="currentColor" stroke-width="1.00" stroke-linecap="butt" stroke-linejoin="miter">
	<path stroke='black'  d='M142.1,404.4 L142.1,395.4 M142.1,54.1 L142.1,63.1  '/>	<g transform="translate(142.1,426.3)" stroke="none" fill="black" font-family="Arial" font-size="12.00"  text-anchor="middle">
		<text><tspan font-family="Arial" > 1</tspan></text>
	</g>
</g>
<g fill="none" color="black" stroke="currentColor" stroke-width="1.00" stroke-linecap="butt" stroke-linejoin="miter">
	<path stroke='black'  d='M203.9,404.4 L203.9,395.4 M203.9,54.1 L203.9,63.1  '/>	<g transform="translate(203.9,426.3)" stroke="none" fill="black" font-family="Arial" font-size="12.00"  text-anchor="middle">
		<text><tspan font-family="Arial" > 2</tspan></text>
	</g>
</g>
<g fill="none" color="black" stroke="currentColor" stroke-width="1.00" stroke-linecap="butt" stroke-linejoin="miter">
	<path stroke='black'  d='M265.8,404.4 L265.8,395.4 M265.8,54.1 L265.8,63.1  '/>	<g transform="translate(265.8,426.3)" stroke="none" fill="black" font-family="Arial" font-size="12.00"  text-anchor="middle">
		<text><tspan font-family="Arial" > 3</tspan></text>
	</g>
</g>
<g fill="none" color="black" stroke="currentColor" stroke-width="1.00" stroke-linecap="butt" stroke-linejoin="miter">
	<path stroke='black'  d='M327.6,404.4 L327.6,395.4 M327.6,54.1 L327.6,63.1  '/>	<g transform="translate(327.6,426.3)" stroke="none" fill="black" font-family="Arial" font-size="12.00"  text-anchor="middle">
		<text><tspan font-family="Arial" > 4</tspan></text>
	</g>
</g>
<g fill="none" color="black" stroke="currentColor" stroke-width="1.00" stroke-linecap="butt" stroke-linejoin="miter">
	<path stroke='black'  d='M389.5,404.4 L389.5,395.4 M389.5,54.1 L389.5,63.1  '/>	<g transform="translate(389.5,426.3)" stroke="none" fill="black" font-family="Arial" font-size="12.00"  text-anchor="middle">
		<text><tspan font-family="Arial" > 5</tspan></text>
	</g>
</g>
<g fill="none" color="black" stroke="currentColor" stroke-width="1.00" stroke-linecap="butt" stroke-linejoin="miter">
	<path stroke='black'  d='M451.3,404.4 L451.3,395.4 M451.3,54.1 L451.3,63.1  '/>	<g transform="translate(451.3,426.3)" stroke="none" fill="black" font-family="Arial" font-size="12.00"  text-anchor="middle">
		<text><tspan font-family="Arial" > 6</tspan></text>
	</g>
</g>
<g fill="none" color="black" stroke="currentColor" stroke-width="1.00" stroke-linecap="butt" stroke-linejoin="miter">
	<path stroke='black'  d='M513.2,404.4 L513.2,395.4 M513.2,54.1 L513.2,63.1  '/>	<g transform="translate(513.2,426.3)" stroke="none" fill="black" font-family="Arial" font-size="12.00"  text-anchor="middle">
		<text><tspan font-family="Arial" > 7</tspan></text>
	</g>
</g>
<g fill="none" color="black" stroke="currentColor" stroke-width="1.00" stroke-linecap="butt" stroke-linejoin="miter">
	<path stroke='black'  d='M575.0,404.4 L575.0,395.4 M575.0,54.1 L575.0,63.1  '/>	<g transform="translate(575.0,426.3)" stroke="none" fill="black" font-family="Arial" font-size="12.00"  text-anchor="middle">
		<text><tspan font-family="Arial" > 8</tspan></text>
	</g>
</g>
<g fill="none" color="black" stroke="currentColor" stroke-width="1.00" stroke-linecap="butt" stroke-linejoin="miter">
</g>
<g fill="none" color="black" stroke="currentColor" stroke-width="1.00" stroke-linecap="butt" stroke-linejoin="miter">
	<path stroke='black'  d='M80.2,54.1 L80.2,404.4 L575.0,404.4 L575.0,54.1 L80.2,54.1 Z  '/></g>
<g fill="none" color="black" stroke="currentColor" stroke-width="1.00" stroke-linecap="butt" stroke-linejoin="miter">
	<g transform="translate(16.3,229.3) rotate(270)" stroke="none" fill="black" font-family="Arial" font-size="12.00"  text-anchor="middle">
		<text><tspan font-family="Arial" >psi/a</tspan><tspan font-family="Arial"  font-size="9.6" dy="3.60px">0</tspan><tspan font-family="Arial"  font-size="9.6" dy="-9.60px">-1</tspan><tspan font-size="12.0" dy="6.00"></tspan></text>
	</g>
</g>
<g fill="none" color="black" stroke="currentColor" stroke-width="1.00" stroke-linecap="butt" stroke-linejoin="miter">
	<g transform="translate(327.6,453.3)" stroke="none" fill="black" font-family="Arial" font-size="12.00"  text-anchor="middle">
		<text><tspan font-family="Arial" >r/a</tspan><tspan font-family="Arial"  font-size="9.6" dy="3.60px">0</tspan><tspan font-size="12.0" dy="-3.60"></tspan></text>
	</g>
</g>
<g fill="none" color="black" stroke="currentColor" stroke-width="1.00" stroke-linecap="butt" stroke-linejoin="miter">
	<g transform="translate(327.6,31.0)" stroke="none" fill="black" font-family="Arial" font-size="12.00"  text-anchor="middle">
		<text><tspan font-family="Arial" >Radial wavefunction of the ground state of atomic hydrogen</tspan></text>
	</g>
</g>
	<g id="gnuplot_plot_1" ><title>Psi from numerical solution</title>
<g fill="none" color="black" stroke="currentColor" stroke-width="1.00" stroke-linecap="butt" stroke-linejoin="miter">
	<g transform="translate(507.9,76.0)" stroke="none" fill="black" font-family="Arial" font-size="12.00"  text-anchor="end">
		<text><tspan font-family="Arial" >Psi from numerical solution</tspan></text>
	</g>
</g>
<g fill="none" color="black" stroke="currentColor" stroke-width="1.00" stroke-linecap="butt" stroke-linejoin="miter">
	<path stroke='rgb(  0,   0,   0)'  d='M516.2,72.1 L558.4,72.1 M80.2,404.4 L80.7,397.4 L81.2,390.6 L81.7,383.9 L82.2,377.3 L82.7,370.7
		L83.2,364.3 L83.7,358.0 L84.2,351.8 L84.7,345.7 L85.1,339.7 L85.6,333.8 L86.1,328.0 L86.6,322.3
		L87.1,316.7 L87.6,311.2 L88.1,305.8 L88.6,300.4 L89.1,295.2 L89.6,290.1 L90.1,285.0 L90.6,280.0
		L91.1,275.1 L91.6,270.3 L92.1,265.6 L92.6,261.0 L93.1,256.5 L93.6,252.0 L94.1,247.6 L94.5,243.3
		L95.0,239.1 L95.5,234.9 L96.0,230.8 L96.5,226.8 L97.0,222.9 L97.5,219.1 L98.0,215.3 L98.5,211.6
		L99.0,208.0 L99.5,204.4 L100.0,200.9 L100.5,197.5 L101.0,194.1 L101.5,190.8 L102.0,187.6 L102.5,184.4
		L103.0,181.3 L103.5,178.3 L104.0,175.3 L104.4,172.4 L104.9,169.6 L105.4,166.8 L105.9,164.1 L106.4,161.4
		L106.9,158.8 L107.4,156.2 L107.9,153.7 L108.4,151.3 L108.9,148.9 L109.4,146.6 L109.9,144.3 L110.4,142.1
		L110.9,139.9 L111.4,137.8 L111.9,135.7 L112.4,133.7 L112.9,131.7 L113.4,129.8 L113.8,127.9 L114.3,126.1
		L114.8,124.3 L115.3,122.5 L115.8,120.8 L116.3,119.2 L116.8,117.6 L117.3,116.0 L117.8,114.5 L118.3,113.0
		L118.8,111.6 L119.3,110.2 L119.8,108.9 L120.3,107.6 L120.8,106.3 L121.3,105.1 L121.8,103.9 L122.3,102.7
		L122.8,101.6 L123.2,100.5 L123.7,99.5 L124.2,98.5 L124.7,97.5 L125.2,96.5 L125.7,95.6 L126.2,94.8
		L126.7,93.9 L127.2,93.1 L127.7,92.4 L128.2,91.6 L128.7,90.9 L129.2,90.2 L129.7,89.6 L130.2,89.0
		L130.7,88.4 L131.2,87.8 L131.7,87.3 L132.2,86.8 L132.6,86.4 L133.1,85.9 L133.6,85.5 L134.1,85.1
		L134.6,84.7 L135.1,84.4 L135.6,84.1 L136.1,83.8 L136.6,83.6 L137.1,83.3 L137.6,83.1 L138.1,82.9
		L138.6,82.8 L139.1,82.6 L139.6,82.5 L140.1,82.4 L140.6,82.3 L141.1,82.3 L141.6,82.2 L142.1,82.2
		L142.5,82.2 L143.0,82.3 L143.5,82.3 L144.0,82.4 L144.5,82.5 L145.0,82.6 L145.5,82.7 L146.0,82.9
		L146.5,83.0 L147.0,83.2 L147.5,83.4 L148.0,83.6 L148.5,83.9 L149.0,84.1 L149.5,84.4 L150.0,84.7
		L150.5,85.0 L151.0,85.3 L151.5,85.6 L151.9,85.9 L152.4,86.3 L152.9,86.7 L153.4,87.1 L153.9,87.5
		L154.4,87.9 L154.9,88.3 L155.4,88.7 L155.9,89.2 L156.4,89.7 L156.9,90.2 L157.4,90.6 L157.9,91.2
		L158.4,91.7 L158.9,92.2 L159.4,92.7 L159.9,93.3 L160.4,93.8 L160.9,94.4 L161.3,95.0 L161.8,95.6
		L162.3,96.2 L162.8,96.8 L163.3,97.4 L163.8,98.1 L164.3,98.7 L164.8,99.4 L165.3,100.0 L165.8,100.7
		L166.3,101.4 L166.8,102.1 L167.3,102.8 L167.8,103.5 L168.3,104.2 L168.8,104.9 L169.3,105.6 L169.8,106.4
		L170.3,107.1 L170.7,107.8 L171.2,108.6 L171.7,109.4 L172.2,110.1 L172.7,110.9 L173.2,111.7 L173.7,112.5
		L174.2,113.3 L174.7,114.1 L175.2,114.9 L175.7,115.7 L176.2,116.5 L176.7,117.3 L177.2,118.2 L177.7,119.0
		L178.2,119.8 L178.7,120.7 L179.2,121.5 L179.7,122.4 L180.1,123.2 L180.6,124.1 L181.1,124.9 L181.6,125.8
		L182.1,126.7 L182.6,127.6 L183.1,128.4 L183.6,129.3 L184.1,130.2 L184.6,131.1 L185.1,132.0 L185.6,132.9
		L186.1,133.8 L186.6,134.7 L187.1,135.6 L187.6,136.5 L188.1,137.4 L188.6,138.3 L189.1,139.2 L189.6,140.2
		L190.0,141.1 L190.5,142.0 L191.0,142.9 L191.5,143.8 L192.0,144.8 L192.5,145.7 L193.0,146.6 L193.5,147.6
		L194.0,148.5 L194.5,149.4 L195.0,150.4 L195.5,151.3 L196.0,152.2 L196.5,153.2 L197.0,154.1 L197.5,155.1
		L198.0,156.0 L198.5,157.0 L199.0,157.9 L199.4,158.8 L199.9,159.8 L200.4,160.7 L200.9,161.7 L201.4,162.6
		L201.9,163.6 L202.4,164.5 L202.9,165.5 L203.4,166.4 L203.9,167.4 L204.4,168.3 L204.9,169.3 L205.4,170.2
		L205.9,171.2 L206.4,172.1 L206.9,173.1 L207.4,174.0 L207.9,175.0 L208.4,175.9 L208.8,176.8 L209.3,177.8
		L209.8,178.7 L210.3,179.7 L210.8,180.6 L211.3,181.6 L211.8,182.5 L212.3,183.5 L212.8,184.4 L213.3,185.3
		L213.8,186.3 L214.3,187.2 L214.8,188.1 L215.3,189.1 L215.8,190.0 L216.3,190.9 L216.8,191.9 L217.3,192.8
		L217.8,193.7 L218.2,194.7 L218.7,195.6 L219.2,196.5 L219.7,197.4 L220.2,198.4 L220.7,199.3 L221.2,200.2
		L221.7,201.1 L222.2,202.0 L222.7,202.9 L223.2,203.8 L223.7,204.8 L224.2,205.7 L224.7,206.6 L225.2,207.5
		L225.7,208.4 L226.2,209.3 L226.7,210.2 L227.2,211.1 L227.7,212.0 L228.1,212.9 L228.6,213.8 L229.1,214.6
		L229.6,215.5 L230.1,216.4 L230.6,217.3 L231.1,218.2 L231.6,219.1 L232.1,219.9 L232.6,220.8 L233.1,221.7
		L233.6,222.5 L234.1,223.4 L234.6,224.3 L235.1,225.1 L235.6,226.0 L236.1,226.9 L236.6,227.7 L237.1,228.6
		L237.5,229.4 L238.0,230.3 L238.5,231.1 L239.0,232.0 L239.5,232.8 L240.0,233.6 L240.5,234.5 L241.0,235.3
		L241.5,236.1 L242.0,237.0 L242.5,237.8 L243.0,238.6 L243.5,239.4 L244.0,240.3 L244.5,241.1 L245.0,241.9
		L245.5,242.7 L246.0,243.5 L246.5,244.3 L246.9,245.1 L247.4,245.9 L247.9,246.7 L248.4,247.5 L248.9,248.3
		L249.4,249.1 L249.9,249.9 L250.4,250.7 L250.9,251.5 L251.4,252.2 L251.9,253.0 L252.4,253.8 L252.9,254.6
		L253.4,255.3 L253.9,256.1 L254.4,256.9 L254.9,257.6 L255.4,258.4 L255.9,259.1 L256.3,259.9 L256.8,260.6
		L257.3,261.4 L257.8,262.1 L258.3,262.9 L258.8,263.6 L259.3,264.3 L259.8,265.1 L260.3,265.8 L260.8,266.5
		L261.3,267.2 L261.8,268.0 L262.3,268.7 L262.8,269.4 L263.3,270.1 L263.8,270.8 L264.3,271.5 L264.8,272.2
		L265.3,272.9 L265.8,273.6 L266.2,274.3 L266.7,275.0 L267.2,275.7 L267.7,276.4 L268.2,277.1 L268.7,277.8
		L269.2,278.5 L269.7,279.1 L270.2,279.8 L270.7,280.5 L271.2,281.1 L271.7,281.8 L272.2,282.5 L272.7,283.1
		L273.2,283.8 L273.7,284.4 L274.2,285.1 L274.7,285.8 L275.2,286.4 L275.6,287.0 L276.1,287.7 L276.6,288.3
		L277.1,289.0 L277.6,289.6 L278.1,290.2 L278.6,290.8 L279.1,291.5 L279.6,292.1 L280.1,292.7 L280.6,293.3
		L281.1,293.9 L281.6,294.6 L282.1,295.2 L282.6,295.8 L283.1,296.4 L283.6,297.0 L284.1,297.6 L284.6,298.2
		L285.0,298.8 L285.5,299.3 L286.0,299.9 L286.5,300.5 L287.0,301.1 L287.5,301.7 L288.0,302.2 L288.5,302.8
		L289.0,303.4 L289.5,304.0 L290.0,304.5 L290.5,305.1 L291.0,305.6 L291.5,306.2 L292.0,306.8 L292.5,307.3
		L293.0,307.9 L293.5,308.4 L294.0,309.0 L294.4,309.5 L294.9,310.0 L295.4,310.6 L295.9,311.1 L296.4,311.6
		L296.9,312.2 L297.4,312.7 L297.9,313.2 L298.4,313.7 L298.9,314.3 L299.4,314.8 L299.9,315.3 L300.4,315.8
		L300.9,316.3 L301.4,316.8 L301.9,317.3 L302.4,317.8 L302.9,318.3 L303.4,318.8 L303.8,319.3 L304.3,319.8
		L304.8,320.3 L305.3,320.8 L305.8,321.3 L306.3,321.8 L306.8,322.2 L307.3,322.7 L307.8,323.2 L308.3,323.7
		L308.8,324.1 L309.3,324.6 L309.8,325.1 L310.3,325.5 L310.8,326.0 L311.3,326.4 L311.8,326.9 L312.3,327.4
		L312.8,327.8 L313.3,328.3 L313.7,328.7 L314.2,329.2 L314.7,329.6 L315.2,330.0 L315.7,330.5 L316.2,330.9
		L316.7,331.3 L317.2,331.8 L317.7,332.2 L318.2,332.6 L318.7,333.1 L319.2,333.5 L319.7,333.9 L320.2,334.3
		L320.7,334.7 L321.2,335.1 L321.7,335.6 L322.2,336.0 L322.7,336.4 L323.1,336.8 L323.6,337.2 L324.1,337.6
		L324.6,338.0 L325.1,338.4 L325.6,338.8 L326.1,339.2 L326.6,339.6 L327.1,339.9 L327.6,340.3 L328.1,340.7
		L328.6,341.1 L329.1,341.5 L329.6,341.9 L330.1,342.2 L330.6,342.6 L331.1,343.0 L331.6,343.4 L332.1,343.7
		L332.5,344.1 L333.0,344.5 L333.5,344.8 L334.0,345.2 L334.5,345.5 L335.0,345.9 L335.5,346.2 L336.0,346.6
		L336.5,347.0 L337.0,347.3 L337.5,347.6 L338.0,348.0 L338.5,348.3 L339.0,348.7 L339.5,349.0 L340.0,349.4
		L340.5,349.7 L341.0,350.0 L341.5,350.4 L341.9,350.7 L342.4,351.0 L342.9,351.3 L343.4,351.7 L343.9,352.0
		L344.4,352.3 L344.9,352.6 L345.4,353.0 L345.9,353.3 L346.4,353.6 L346.9,353.9 L347.4,354.2 L347.9,354.5
		L348.4,354.8 L348.9,355.1 L349.4,355.4 L349.9,355.7 L350.4,356.0 L350.9,356.3 L351.4,356.6 L351.8,356.9
		L352.3,357.2 L352.8,357.5 L353.3,357.8 L353.8,358.1 L354.3,358.4 L354.8,358.7 L355.3,359.0 L355.8,359.2
		L356.3,359.5 L356.8,359.8 L357.3,360.1 L357.8,360.4 L358.3,360.6 L358.8,360.9 L359.3,361.2 L359.8,361.4
		L360.3,361.7 L360.8,362.0 L361.2,362.2 L361.7,362.5 L362.2,362.8 L362.7,363.0 L363.2,363.3 L363.7,363.6
		L364.2,363.8 L364.7,364.1 L365.2,364.3 L365.7,364.6 L366.2,364.8 L366.7,365.1 L367.2,365.3 L367.7,365.6
		L368.2,365.8 L368.7,366.1 L369.2,366.3 L369.7,366.5 L370.2,366.8 L370.6,367.0 L371.1,367.2 L371.6,367.5
		L372.1,367.7 L372.6,368.0 L373.1,368.2 L373.6,368.4 L374.1,368.6 L374.6,368.9 L375.1,369.1 L375.6,369.3
		L376.1,369.5 L376.6,369.8 L377.1,370.0 L377.6,370.2 L378.1,370.4 L378.6,370.6 L379.1,370.9 L379.6,371.1
		L380.0,371.3 L380.5,371.5 L381.0,371.7 L381.5,371.9 L382.0,372.1 L382.5,372.3 L383.0,372.5 L383.5,372.7
		L384.0,372.9 L384.5,373.1 L385.0,373.3 L385.5,373.5 L386.0,373.7 L386.5,373.9 L387.0,374.1 L387.5,374.3
		L388.0,374.5 L388.5,374.7 L389.0,374.9 L389.5,375.1 L389.9,375.3 L390.4,375.5 L390.9,375.7 L391.4,375.9
		L391.9,376.0 L392.4,376.2 L392.9,376.4 L393.4,376.6 L393.9,376.8 L394.4,377.0 L394.9,377.1 L395.4,377.3
		L395.9,377.5 L396.4,377.7 L396.9,377.8 L397.4,378.0 L397.9,378.2 L398.4,378.4 L398.9,378.5 L399.3,378.7
		L399.8,378.9 L400.3,379.0 L400.8,379.2 L401.3,379.4 L401.8,379.5 L402.3,379.7 L402.8,379.8 L403.3,380.0
		L403.8,380.2 L404.3,380.3 L404.8,380.5 L405.3,380.6 L405.8,380.8 L406.3,381.0 L406.8,381.1 L407.3,381.3
		L407.8,381.4 L408.3,381.6 L408.7,381.7 L409.2,381.9 L409.7,382.0 L410.2,382.2 L410.7,382.3 L411.2,382.5
		L411.7,382.6 L412.2,382.8 L412.7,382.9 L413.2,383.0 L413.7,383.2 L414.2,383.3 L414.7,383.5 L415.2,383.6
		L415.7,383.7 L416.2,383.9 L416.7,384.0 L417.2,384.2 L417.7,384.3 L418.1,384.4 L418.6,384.6 L419.1,384.7
		L419.6,384.8 L420.1,385.0 L420.6,385.1 L421.1,385.2 L421.6,385.3 L422.1,385.5 L422.6,385.6 L423.1,385.7
		L423.6,385.9 L424.1,386.0 L424.6,386.1 L425.1,386.2 L425.6,386.4 L426.1,386.5 L426.6,386.6 L427.1,386.7
		L427.5,386.8 L428.0,387.0 L428.5,387.1 L429.0,387.2 L429.5,387.3 L430.0,387.4 L430.5,387.5 L431.0,387.7
		L431.5,387.8 L432.0,387.9 L432.5,388.0 L433.0,388.1 L433.5,388.2 L434.0,388.3 L434.5,388.4 L435.0,388.6
		L435.5,388.7 L436.0,388.8 L436.5,388.9 L437.0,389.0 L437.4,389.1 L437.9,389.2 L438.4,389.3 L438.9,389.4
		L439.4,389.5 L439.9,389.6 L440.4,389.7 L440.9,389.8 L441.4,389.9 L441.9,390.0 L442.4,390.1 L442.9,390.2
		L443.4,390.3 L443.9,390.4 L444.4,390.5 L444.9,390.6 L445.4,390.7 L445.9,390.8 L446.4,390.9 L446.8,391.0
		L447.3,391.1 L447.8,391.2 L448.3,391.3 L448.8,391.4 L449.3,391.5 L449.8,391.6 L450.3,391.6 L450.8,391.7
		L451.3,391.8 L451.8,391.9 L452.3,392.0 L452.8,392.1 L453.3,392.2 L453.8,392.3 L454.3,392.4 L454.8,392.4
		L455.3,392.5 L455.8,392.6 L456.2,392.7 L456.7,392.8 L457.2,392.9 L457.7,393.0 L458.2,393.0 L458.7,393.1
		L459.2,393.2 L459.7,393.3 L460.2,393.4 L460.7,393.4 L461.2,393.5 L461.7,393.6 L462.2,393.7 L462.7,393.8
		L463.2,393.8 L463.7,393.9 L464.2,394.0 L464.7,394.1 L465.2,394.1 L465.6,394.2 L466.1,394.3 L466.6,394.4
		L467.1,394.4 L467.6,394.5 L468.1,394.6 L468.6,394.7 L469.1,394.7 L469.6,394.8 L470.1,394.9 L470.6,395.0
		L471.1,395.0 L471.6,395.1 L472.1,395.2 L472.6,395.2 L473.1,395.3 L473.6,395.4 L474.1,395.4 L474.6,395.5
		L475.1,395.6 L475.5,395.6 L476.0,395.7 L476.5,395.8 L477.0,395.8 L477.5,395.9 L478.0,396.0 L478.5,396.0
		L479.0,396.1 L479.5,396.2 L480.0,396.2 L480.5,396.3 L481.0,396.4 L481.5,396.4 L482.0,396.5 L482.5,396.5
		L483.0,396.6 L483.5,396.7 L484.0,396.7 L484.5,396.8 L484.9,396.9 L485.4,396.9 L485.9,397.0 L486.4,397.0
		L486.9,397.1 L487.4,397.2 L487.9,397.2 L488.4,397.3 L488.9,397.3 L489.4,397.4 L489.9,397.4 L490.4,397.5
		L490.9,397.6 L491.4,397.6 L491.9,397.7 L492.4,397.7 L492.9,397.8 L493.4,397.8 L493.9,397.9 L494.3,397.9
		L494.8,398.0 L495.3,398.1 L495.8,398.1 L496.3,398.2 L496.8,398.2 L497.3,398.3 L497.8,398.3 L498.3,398.4
		L498.8,398.4 L499.3,398.5 L499.8,398.5 L500.3,398.6 L500.8,398.6 L501.3,398.7 L501.8,398.7 L502.3,398.8
		L502.8,398.8 L503.3,398.9 L503.7,398.9 L504.2,399.0 L504.7,399.0 L505.2,399.1 L505.7,399.1 L506.2,399.2
		L506.7,399.2 L507.2,399.3 L507.7,399.3 L508.2,399.4 L508.7,399.4 L509.2,399.5 L509.7,399.5 L510.2,399.6
		L510.7,399.6 L511.2,399.6 L511.7,399.7 L512.2,399.7 L512.7,399.8 L513.2,399.8 L513.6,399.9 L514.1,399.9
		L514.6,400.0 L515.1,400.0 L515.6,400.0 L516.1,400.1 L516.6,400.1 L517.1,400.2 L517.6,400.2 L518.1,400.3
		L518.6,400.3 L519.1,400.4 L519.6,400.4 L520.1,400.4 L520.6,400.5 L521.1,400.5 L521.6,400.6 L522.1,400.6
		L522.6,400.6 L523.0,400.7 L523.5,400.7 L524.0,400.8 L524.5,400.8 L525.0,400.8 L525.5,400.9 L526.0,400.9
		L526.5,401.0 L527.0,401.0 L527.5,401.1 L528.0,401.1 L528.5,401.1 L529.0,401.2 L529.5,401.2 L530.0,401.2
		L530.5,401.3 L531.0,401.3 L531.5,401.4 L532.0,401.4 L532.4,401.4 L532.9,401.5 L533.4,401.5 L533.9,401.6
		L534.4,401.6 L534.9,401.6 L535.4,401.7 L535.9,401.7 L536.4,401.7 L536.9,401.8 L537.4,401.8 L537.9,401.9
		L538.4,401.9 L538.9,401.9 L539.4,402.0 L539.9,402.0 L540.4,402.0 L540.9,402.1 L541.4,402.1 L541.8,402.1
		L542.3,402.2 L542.8,402.2 L543.3,402.3 L543.8,402.3 L544.3,402.3 L544.8,402.4 L545.3,402.4 L545.8,402.4
		L546.3,402.5 L546.8,402.5 L547.3,402.5 L547.8,402.6 L548.3,402.6 L548.8,402.6 L549.3,402.7 L549.8,402.7
		L550.3,402.7 L550.8,402.8 L551.2,402.8 L551.7,402.8 L552.2,402.9 L552.7,402.9 L553.2,402.9 L553.7,403.0
		L554.2,403.0 L554.7,403.1 L555.2,403.1 L555.7,403.1 L556.2,403.2 L556.7,403.2 L557.2,403.2 L557.7,403.3
		L558.2,403.3 L558.7,403.3 L559.2,403.4 L559.7,403.4 L560.2,403.4 L560.7,403.5 L561.1,403.5 L561.6,403.5
		L562.1,403.6 L562.6,403.6 L563.1,403.6 L563.6,403.7 L564.1,403.7 L564.6,403.7 L565.1,403.7 L565.6,403.8
		L566.1,403.8 L566.6,403.8 L567.1,403.9 L567.6,403.9 L568.1,403.9 L568.6,404.0 L569.1,404.0 L569.6,404.0
		L570.1,404.1 L570.5,404.1 L571.0,404.1 L571.5,404.2 L572.0,404.2 L572.5,404.2 L573.0,404.3 L573.5,404.3
		L574.0,404.3 L574.5,404.4 L575.0,404.4  '/></g>
	</g>
	<g id="gnuplot_plot_2" ><title>Analytically found Psi</title>
<g fill="none" color="black" stroke="currentColor" stroke-width="1.00" stroke-linecap="butt" stroke-linejoin="miter">
	<g transform="translate(507.9,94.0)" stroke="none" fill="black" font-family="Arial" font-size="12.00"  text-anchor="end">
		<text><tspan font-family="Arial" >Analytically found Psi</tspan></text>
	</g>
</g>
<g fill="none" color="black" stroke="currentColor" stroke-width="1.00" stroke-linecap="butt" stroke-linejoin="miter">
	<use xlink:href='#gpPt1' transform='translate(80.2,404.4) scale(4.50)' color='rgb(255,   0,   0)'/>
	<use xlink:href='#gpPt1' transform='translate(104.9,169.6) scale(4.50)' color='rgb(255,   0,   0)'/>
	<use xlink:href='#gpPt1' transform='translate(129.7,89.6) scale(4.50)' color='rgb(255,   0,   0)'/>
	<use xlink:href='#gpPt1' transform='translate(154.4,87.9) scale(4.50)' color='rgb(255,   0,   0)'/>
	<use xlink:href='#gpPt1' transform='translate(179.2,121.5) scale(4.50)' color='rgb(255,   0,   0)'/>
	<use xlink:href='#gpPt1' transform='translate(203.9,167.4) scale(4.50)' color='rgb(255,   0,   0)'/>
	<use xlink:href='#gpPt1' transform='translate(228.6,213.7) scale(4.50)' color='rgb(255,   0,   0)'/>
	<use xlink:href='#gpPt1' transform='translate(253.4,255.3) scale(4.50)' color='rgb(255,   0,   0)'/>
	<use xlink:href='#gpPt1' transform='translate(278.1,290.2) scale(4.50)' color='rgb(255,   0,   0)'/>
	<use xlink:href='#gpPt1' transform='translate(302.9,318.3) scale(4.50)' color='rgb(255,   0,   0)'/>
	<use xlink:href='#gpPt1' transform='translate(327.6,340.2) scale(4.50)' color='rgb(255,   0,   0)'/>
	<use xlink:href='#gpPt1' transform='translate(352.3,357.1) scale(4.50)' color='rgb(255,   0,   0)'/>
	<use xlink:href='#gpPt1' transform='translate(377.1,369.8) scale(4.50)' color='rgb(255,   0,   0)'/>
	<use xlink:href='#gpPt1' transform='translate(401.8,379.3) scale(4.50)' color='rgb(255,   0,   0)'/>
	<use xlink:href='#gpPt1' transform='translate(426.6,386.3) scale(4.50)' color='rgb(255,   0,   0)'/>
	<use xlink:href='#gpPt1' transform='translate(451.3,391.4) scale(4.50)' color='rgb(255,   0,   0)'/>
	<use xlink:href='#gpPt1' transform='translate(476.0,395.1) scale(4.50)' color='rgb(255,   0,   0)'/>
	<use xlink:href='#gpPt1' transform='translate(500.8,397.8) scale(4.50)' color='rgb(255,   0,   0)'/>
	<use xlink:href='#gpPt1' transform='translate(525.5,399.7) scale(4.50)' color='rgb(255,   0,   0)'/>
	<use xlink:href='#gpPt1' transform='translate(550.3,401.1) scale(4.50)' color='rgb(255,   0,   0)'/>
	<use xlink:href='#gpPt1' transform='translate(575.0,402.0) scale(4.50)' color='rgb(255,   0,   0)'/>
	<use xlink:href='#gpPt1' transform='translate(537.3,90.1) scale(4.50)' color='rgb(255,   0,   0)'/>
</g>
	</g>
<g fill="none" color="#FFFFFF" stroke="rgb(255,   0,   0)" stroke-width="2.00" stroke-linecap="butt" stroke-linejoin="miter">
</g>
<g fill="none" color="black" stroke="currentColor" stroke-width="2.00" stroke-linecap="butt" stroke-linejoin="miter">
</g>
<g fill="none" color="black" stroke="black" stroke-width="1.00" stroke-linecap="butt" stroke-linejoin="miter">
</g>
<g fill="none" color="black" stroke="currentColor" stroke-width="1.00" stroke-linecap="butt" stroke-linejoin="miter">
	<path stroke='black'  d='M80.2,54.1 L80.2,404.4 L575.0,404.4 L575.0,54.1 L80.2,54.1 Z  '/></g>
<g fill="none" color="black" stroke="currentColor" stroke-width="1.00" stroke-linecap="butt" stroke-linejoin="miter">
</g>
</g>
</svg>

