<?xml version="1.0" encoding="utf-8"  standalone="no"?>
<svg 
 width="600" height="480"
 viewBox="0 0 600 480"
 xmlns="http://www.w3.org/2000/svg"
 xmlns:xlink="http://www.w3.org/1999/xlink"
>

<title>Gnuplot</title>
<desc>Produced by GNUPLOT 5.2 patchlevel 6 </desc>

<g id="gnuplot_canvas">

<rect x="0" y="0" width="600" height="480" fill="#ffffff"/>
<defs>

	<circle id='gpDot' r='0.5' stroke-width='0.5' stroke='currentColor'/>
	<path id='gpPt0' stroke-width='0.222' stroke='currentColor' d='M-1,0 h2 M0,-1 v2'/>
	<path id='gpPt1' stroke-width='0.222' stroke='currentColor' d='M-1,-1 L1,1 M1,-1 L-1,1'/>
	<path id='gpPt2' stroke-width='0.222' stroke='currentColor' d='M-1,0 L1,0 M0,-1 L0,1 M-1,-1 L1,1 M-1,1 L1,-1'/>
	<rect id='gpPt3' stroke-width='0.222' stroke='currentColor' x='-1' y='-1' width='2' height='2'/>
	<rect id='gpPt4' stroke-width='0.222' stroke='currentColor' fill='currentColor' x='-1' y='-1' width='2' height='2'/>
	<circle id='gpPt5' stroke-width='0.222' stroke='currentColor' cx='0' cy='0' r='1'/>
	<use xlink:href='#gpPt5' id='gpPt6' fill='currentColor' stroke='none'/>
	<path id='gpPt7' stroke-width='0.222' stroke='currentColor' d='M0,-1.33 L-1.33,0.67 L1.33,0.67 z'/>
	<use xlink:href='#gpPt7' id='gpPt8' fill='currentColor' stroke='none'/>
	<use xlink:href='#gpPt7' id='gpPt9' stroke='currentColor' transform='rotate(180)'/>
	<use xlink:href='#gpPt9' id='gpPt10' fill='currentColor' stroke='none'/>
	<use xlink:href='#gpPt3' id='gpPt11' stroke='currentColor' transform='rotate(45)'/>
	<use xlink:href='#gpPt11' id='gpPt12' fill='currentColor' stroke='none'/>
	<path id='gpPt13' stroke-width='0.222' stroke='currentColor' d='M0,1.330 L1.265,0.411 L0.782,-1.067 L-0.782,-1.076 L-1.265,0.411 z'/>
	<use xlink:href='#gpPt13' id='gpPt14' fill='currentColor' stroke='none'/>
	<filter id='textbox' filterUnits='objectBoundingBox' x='0' y='0' height='1' width='1'>
	  <feFlood flood-color='#FFFFFF' flood-opacity='1' result='bgnd'/>
	  <feComposite in='SourceGraphic' in2='bgnd' operator='atop'/>
	</filter>
	<filter id='greybox' filterUnits='objectBoundingBox' x='0' y='0' height='1' width='1'>
	  <feFlood flood-color='lightgrey' flood-opacity='1' result='grey'/>
	  <feComposite in='SourceGraphic' in2='grey' operator='atop'/>
	</filter>
</defs>
<g fill="none" color="#FFFFFF" stroke="currentColor" stroke-width="1.00" stroke-linecap="butt" stroke-linejoin="miter">
</g>
<g fill="none" color="black" stroke="currentColor" stroke-width="1.00" stroke-linecap="butt" stroke-linejoin="miter">
</g>
<g fill="none" color="black" stroke="black" stroke-width="0.50" stroke-linecap="butt" stroke-linejoin="miter">
</g>
<g fill="none" color="gray" stroke="currentColor" stroke-width="0.50" stroke-linecap="butt" stroke-linejoin="miter">
	<path stroke='gray' stroke-dasharray='2,4' class="gridline"  d='M55.3,422.4 L575.0,422.4  '/></g>
<g fill="none" color="gray" stroke="gray" stroke-width="1.00" stroke-linecap="butt" stroke-linejoin="miter">
</g>
<g fill="none" color="black" stroke="currentColor" stroke-width="1.00" stroke-linecap="butt" stroke-linejoin="miter">
	<path stroke='black'  d='M55.3,422.4 L64.3,422.4 M575.0,422.4 L566.0,422.4  '/>	<g transform="translate(47.0,426.3)" stroke="none" fill="black" font-family="Arial" font-size="12.00"  text-anchor="end">
		<text><tspan font-family="Arial" > 1</tspan></text>
	</g>
</g>
<g fill="none" color="black" stroke="currentColor" stroke-width="1.00" stroke-linecap="butt" stroke-linejoin="miter">
</g>
<g fill="none" color="black" stroke="black" stroke-width="0.50" stroke-linecap="butt" stroke-linejoin="miter">
</g>
<g fill="none" color="gray" stroke="currentColor" stroke-width="0.50" stroke-linecap="butt" stroke-linejoin="miter">
	<path stroke='gray' stroke-dasharray='2,4' class="gridline"  d='M55.3,361.0 L575.0,361.0  '/></g>
<g fill="none" color="gray" stroke="gray" stroke-width="1.00" stroke-linecap="butt" stroke-linejoin="miter">
</g>
<g fill="none" color="black" stroke="currentColor" stroke-width="1.00" stroke-linecap="butt" stroke-linejoin="miter">
	<path stroke='black'  d='M55.3,361.0 L64.3,361.0 M575.0,361.0 L566.0,361.0  '/>	<g transform="translate(47.0,364.9)" stroke="none" fill="black" font-family="Arial" font-size="12.00"  text-anchor="end">
		<text><tspan font-family="Arial" > 2</tspan></text>
	</g>
</g>
<g fill="none" color="black" stroke="currentColor" stroke-width="1.00" stroke-linecap="butt" stroke-linejoin="miter">
</g>
<g fill="none" color="black" stroke="black" stroke-width="0.50" stroke-linecap="butt" stroke-linejoin="miter">
</g>
<g fill="none" color="gray" stroke="currentColor" stroke-width="0.50" stroke-linecap="butt" stroke-linejoin="miter">
	<path stroke='gray' stroke-dasharray='2,4' class="gridline"  d='M55.3,299.6 L575.0,299.6  '/></g>
<g fill="none" color="gray" stroke="gray" stroke-width="1.00" stroke-linecap="butt" stroke-linejoin="miter">
</g>
<g fill="none" color="black" stroke="currentColor" stroke-width="1.00" stroke-linecap="butt" stroke-linejoin="miter">
	<path stroke='black'  d='M55.3,299.6 L64.3,299.6 M575.0,299.6 L566.0,299.6  '/>	<g transform="translate(47.0,303.5)" stroke="none" fill="black" font-family="Arial" font-size="12.00"  text-anchor="end">
		<text><tspan font-family="Arial" > 3</tspan></text>
	</g>
</g>
<g fill="none" color="black" stroke="currentColor" stroke-width="1.00" stroke-linecap="butt" stroke-linejoin="miter">
</g>
<g fill="none" color="black" stroke="black" stroke-width="0.50" stroke-linecap="butt" stroke-linejoin="miter">
</g>
<g fill="none" color="gray" stroke="currentColor" stroke-width="0.50" stroke-linecap="butt" stroke-linejoin="miter">
	<path stroke='gray' stroke-dasharray='2,4' class="gridline"  d='M55.3,238.2 L575.0,238.2  '/></g>
<g fill="none" color="gray" stroke="gray" stroke-width="1.00" stroke-linecap="butt" stroke-linejoin="miter">
</g>
<g fill="none" color="black" stroke="currentColor" stroke-width="1.00" stroke-linecap="butt" stroke-linejoin="miter">
	<path stroke='black'  d='M55.3,238.2 L64.3,238.2 M575.0,238.2 L566.0,238.2  '/>	<g transform="translate(47.0,242.1)" stroke="none" fill="black" font-family="Arial" font-size="12.00"  text-anchor="end">
		<text><tspan font-family="Arial" > 4</tspan></text>
	</g>
</g>
<g fill="none" color="black" stroke="currentColor" stroke-width="1.00" stroke-linecap="butt" stroke-linejoin="miter">
</g>
<g fill="none" color="black" stroke="black" stroke-width="0.50" stroke-linecap="butt" stroke-linejoin="miter">
</g>
<g fill="none" color="gray" stroke="currentColor" stroke-width="0.50" stroke-linecap="butt" stroke-linejoin="miter">
	<path stroke='gray' stroke-dasharray='2,4' class="gridline"  d='M55.3,176.9 L575.0,176.9  '/></g>
<g fill="none" color="gray" stroke="gray" stroke-width="1.00" stroke-linecap="butt" stroke-linejoin="miter">
</g>
<g fill="none" color="black" stroke="currentColor" stroke-width="1.00" stroke-linecap="butt" stroke-linejoin="miter">
	<path stroke='black'  d='M55.3,176.9 L64.3,176.9 M575.0,176.9 L566.0,176.9  '/>	<g transform="translate(47.0,180.8)" stroke="none" fill="black" font-family="Arial" font-size="12.00"  text-anchor="end">
		<text><tspan font-family="Arial" > 5</tspan></text>
	</g>
</g>
<g fill="none" color="black" stroke="currentColor" stroke-width="1.00" stroke-linecap="butt" stroke-linejoin="miter">
</g>
<g fill="none" color="black" stroke="black" stroke-width="0.50" stroke-linecap="butt" stroke-linejoin="miter">
</g>
<g fill="none" color="gray" stroke="currentColor" stroke-width="0.50" stroke-linecap="butt" stroke-linejoin="miter">
	<path stroke='gray' stroke-dasharray='2,4' class="gridline"  d='M55.3,115.5 L575.0,115.5  '/></g>
<g fill="none" color="gray" stroke="gray" stroke-width="1.00" stroke-linecap="butt" stroke-linejoin="miter">
</g>
<g fill="none" color="black" stroke="currentColor" stroke-width="1.00" stroke-linecap="butt" stroke-linejoin="miter">
	<path stroke='black'  d='M55.3,115.5 L64.3,115.5 M575.0,115.5 L566.0,115.5  '/>	<g transform="translate(47.0,119.4)" stroke="none" fill="black" font-family="Arial" font-size="12.00"  text-anchor="end">
		<text><tspan font-family="Arial" > 6</tspan></text>
	</g>
</g>
<g fill="none" color="black" stroke="currentColor" stroke-width="1.00" stroke-linecap="butt" stroke-linejoin="miter">
</g>
<g fill="none" color="black" stroke="black" stroke-width="0.50" stroke-linecap="butt" stroke-linejoin="miter">
</g>
<g fill="none" color="gray" stroke="currentColor" stroke-width="0.50" stroke-linecap="butt" stroke-linejoin="miter">
	<path stroke='gray' stroke-dasharray='2,4' class="gridline"  d='M55.3,54.1 L575.0,54.1  '/></g>
<g fill="none" color="gray" stroke="gray" stroke-width="1.00" stroke-linecap="butt" stroke-linejoin="miter">
</g>
<g fill="none" color="black" stroke="currentColor" stroke-width="1.00" stroke-linecap="butt" stroke-linejoin="miter">
	<path stroke='black'  d='M55.3,54.1 L64.3,54.1 M575.0,54.1 L566.0,54.1  '/>	<g transform="translate(47.0,58.0)" stroke="none" fill="black" font-family="Arial" font-size="12.00"  text-anchor="end">
		<text><tspan font-family="Arial" > 7</tspan></text>
	</g>
</g>
<g fill="none" color="black" stroke="currentColor" stroke-width="1.00" stroke-linecap="butt" stroke-linejoin="miter">
</g>
<g fill="none" color="black" stroke="black" stroke-width="0.50" stroke-linecap="butt" stroke-linejoin="miter">
</g>
<g fill="none" color="gray" stroke="currentColor" stroke-width="0.50" stroke-linecap="butt" stroke-linejoin="miter">
	<path stroke='gray' stroke-dasharray='2,4' class="gridline"  d='M55.3,422.4 L55.3,54.1  '/></g>
<g fill="none" color="gray" stroke="gray" stroke-width="1.00" stroke-linecap="butt" stroke-linejoin="miter">
</g>
<g fill="none" color="black" stroke="currentColor" stroke-width="1.00" stroke-linecap="butt" stroke-linejoin="miter">
	<path stroke='black'  d='M55.3,422.4 L55.3,413.4 M55.3,54.1 L55.3,63.1  '/>	<g transform="translate(55.3,444.3)" stroke="none" fill="black" font-family="Arial" font-size="12.00"  text-anchor="middle">
		<text><tspan font-family="Arial" > 0</tspan></text>
	</g>
</g>
<g fill="none" color="black" stroke="currentColor" stroke-width="1.00" stroke-linecap="butt" stroke-linejoin="miter">
</g>
<g fill="none" color="black" stroke="black" stroke-width="0.50" stroke-linecap="butt" stroke-linejoin="miter">
</g>
<g fill="none" color="gray" stroke="currentColor" stroke-width="0.50" stroke-linecap="butt" stroke-linejoin="miter">
	<path stroke='gray' stroke-dasharray='2,4' class="gridline"  d='M110.0,422.4 L110.0,54.1  '/></g>
<g fill="none" color="gray" stroke="gray" stroke-width="1.00" stroke-linecap="butt" stroke-linejoin="miter">
</g>
<g fill="none" color="black" stroke="currentColor" stroke-width="1.00" stroke-linecap="butt" stroke-linejoin="miter">
	<path stroke='black'  d='M110.0,422.4 L110.0,413.4 M110.0,54.1 L110.0,63.1  '/>	<g transform="translate(110.0,444.3)" stroke="none" fill="black" font-family="Arial" font-size="12.00"  text-anchor="middle">
		<text><tspan font-family="Arial" > 1</tspan></text>
	</g>
</g>
<g fill="none" color="black" stroke="currentColor" stroke-width="1.00" stroke-linecap="butt" stroke-linejoin="miter">
</g>
<g fill="none" color="black" stroke="black" stroke-width="0.50" stroke-linecap="butt" stroke-linejoin="miter">
</g>
<g fill="none" color="gray" stroke="currentColor" stroke-width="0.50" stroke-linecap="butt" stroke-linejoin="miter">
	<path stroke='gray' stroke-dasharray='2,4' class="gridline"  d='M164.7,422.4 L164.7,54.1  '/></g>
<g fill="none" color="gray" stroke="gray" stroke-width="1.00" stroke-linecap="butt" stroke-linejoin="miter">
</g>
<g fill="none" color="black" stroke="currentColor" stroke-width="1.00" stroke-linecap="butt" stroke-linejoin="miter">
	<path stroke='black'  d='M164.7,422.4 L164.7,413.4 M164.7,54.1 L164.7,63.1  '/>	<g transform="translate(164.7,444.3)" stroke="none" fill="black" font-family="Arial" font-size="12.00"  text-anchor="middle">
		<text><tspan font-family="Arial" > 2</tspan></text>
	</g>
</g>
<g fill="none" color="black" stroke="currentColor" stroke-width="1.00" stroke-linecap="butt" stroke-linejoin="miter">
</g>
<g fill="none" color="black" stroke="black" stroke-width="0.50" stroke-linecap="butt" stroke-linejoin="miter">
</g>
<g fill="none" color="gray" stroke="currentColor" stroke-width="0.50" stroke-linecap="butt" stroke-linejoin="miter">
	<path stroke='gray' stroke-dasharray='2,4' class="gridline"  d='M219.4,422.4 L219.4,99.1 M219.4,63.1 L219.4,54.1  '/></g>
<g fill="none" color="gray" stroke="gray" stroke-width="1.00" stroke-linecap="butt" stroke-linejoin="miter">
</g>
<g fill="none" color="black" stroke="currentColor" stroke-width="1.00" stroke-linecap="butt" stroke-linejoin="miter">
	<path stroke='black'  d='M219.4,422.4 L219.4,413.4 M219.4,54.1 L219.4,63.1  '/>	<g transform="translate(219.4,444.3)" stroke="none" fill="black" font-family="Arial" font-size="12.00"  text-anchor="middle">
		<text><tspan font-family="Arial" > 3</tspan></text>
	</g>
</g>
<g fill="none" color="black" stroke="currentColor" stroke-width="1.00" stroke-linecap="butt" stroke-linejoin="miter">
</g>
<g fill="none" color="black" stroke="black" stroke-width="0.50" stroke-linecap="butt" stroke-linejoin="miter">
</g>
<g fill="none" color="gray" stroke="currentColor" stroke-width="0.50" stroke-linecap="butt" stroke-linejoin="miter">
	<path stroke='gray' stroke-dasharray='2,4' class="gridline"  d='M274.1,422.4 L274.1,99.1 M274.1,63.1 L274.1,54.1  '/></g>
<g fill="none" color="gray" stroke="gray" stroke-width="1.00" stroke-linecap="butt" stroke-linejoin="miter">
</g>
<g fill="none" color="black" stroke="currentColor" stroke-width="1.00" stroke-linecap="butt" stroke-linejoin="miter">
	<path stroke='black'  d='M274.1,422.4 L274.1,413.4 M274.1,54.1 L274.1,63.1  '/>	<g transform="translate(274.1,444.3)" stroke="none" fill="black" font-family="Arial" font-size="12.00"  text-anchor="middle">
		<text><tspan font-family="Arial" > 4</tspan></text>
	</g>
</g>
<g fill="none" color="black" stroke="currentColor" stroke-width="1.00" stroke-linecap="butt" stroke-linejoin="miter">
</g>
<g fill="none" color="black" stroke="black" stroke-width="0.50" stroke-linecap="butt" stroke-linejoin="miter">
</g>
<g fill="none" color="gray" stroke="currentColor" stroke-width="0.50" stroke-linecap="butt" stroke-linejoin="miter">
	<path stroke='gray' stroke-dasharray='2,4' class="gridline"  d='M328.8,422.4 L328.8,99.1 M328.8,63.1 L328.8,54.1  '/></g>
<g fill="none" color="gray" stroke="gray" stroke-width="1.00" stroke-linecap="butt" stroke-linejoin="miter">
</g>
<g fill="none" color="black" stroke="currentColor" stroke-width="1.00" stroke-linecap="butt" stroke-linejoin="miter">
	<path stroke='black'  d='M328.8,422.4 L328.8,413.4 M328.8,54.1 L328.8,63.1  '/>	<g transform="translate(328.8,444.3)" stroke="none" fill="black" font-family="Arial" font-size="12.00"  text-anchor="middle">
		<text><tspan font-family="Arial" > 5</tspan></text>
	</g>
</g>
<g fill="none" color="black" stroke="currentColor" stroke-width="1.00" stroke-linecap="butt" stroke-linejoin="miter">
</g>
<g fill="none" color="black" stroke="black" stroke-width="0.50" stroke-linecap="butt" stroke-linejoin="miter">
</g>
<g fill="none" color="gray" stroke="currentColor" stroke-width="0.50" stroke-linecap="butt" stroke-linejoin="miter">
	<path stroke='gray' stroke-dasharray='2,4' class="gridline"  d='M383.5,422.4 L383.5,99.1 M383.5,63.1 L383.5,54.1  '/></g>
<g fill="none" color="gray" stroke="gray" stroke-width="1.00" stroke-linecap="butt" stroke-linejoin="miter">
</g>
<g fill="none" color="black" stroke="currentColor" stroke-width="1.00" stroke-linecap="butt" stroke-linejoin="miter">
	<path stroke='black'  d='M383.5,422.4 L383.5,413.4 M383.5,54.1 L383.5,63.1  '/>	<g transform="translate(383.5,444.3)" stroke="none" fill="black" font-family="Arial" font-size="12.00"  text-anchor="middle">
		<text><tspan font-family="Arial" > 6</tspan></text>
	</g>
</g>
<g fill="none" color="black" stroke="currentColor" stroke-width="1.00" stroke-linecap="butt" stroke-linejoin="miter">
</g>
<g fill="none" color="black" stroke="black" stroke-width="0.50" stroke-linecap="butt" stroke-linejoin="miter">
</g>
<g fill="none" color="gray" stroke="currentColor" stroke-width="0.50" stroke-linecap="butt" stroke-linejoin="miter">
	<path stroke='gray' stroke-dasharray='2,4' class="gridline"  d='M438.2,422.4 L438.2,99.1 M438.2,63.1 L438.2,54.1  '/></g>
<g fill="none" color="gray" stroke="gray" stroke-width="1.00" stroke-linecap="butt" stroke-linejoin="miter">
</g>
<g fill="none" color="black" stroke="currentColor" stroke-width="1.00" stroke-linecap="butt" stroke-linejoin="miter">
	<path stroke='black'  d='M438.2,422.4 L438.2,413.4 M438.2,54.1 L438.2,63.1  '/>	<g transform="translate(438.2,444.3)" stroke="none" fill="black" font-family="Arial" font-size="12.00"  text-anchor="middle">
		<text><tspan font-family="Arial" > 7</tspan></text>
	</g>
</g>
<g fill="none" color="black" stroke="currentColor" stroke-width="1.00" stroke-linecap="butt" stroke-linejoin="miter">
</g>
<g fill="none" color="black" stroke="black" stroke-width="0.50" stroke-linecap="butt" stroke-linejoin="miter">
</g>
<g fill="none" color="gray" stroke="currentColor" stroke-width="0.50" stroke-linecap="butt" stroke-linejoin="miter">
	<path stroke='gray' stroke-dasharray='2,4' class="gridline"  d='M492.9,422.4 L492.9,99.1 M492.9,63.1 L492.9,54.1  '/></g>
<g fill="none" color="gray" stroke="gray" stroke-width="1.00" stroke-linecap="butt" stroke-linejoin="miter">
</g>
<g fill="none" color="black" stroke="currentColor" stroke-width="1.00" stroke-linecap="butt" stroke-linejoin="miter">
	<path stroke='black'  d='M492.9,422.4 L492.9,413.4 M492.9,54.1 L492.9,63.1  '/>	<g transform="translate(492.9,444.3)" stroke="none" fill="black" font-family="Arial" font-size="12.00"  text-anchor="middle">
		<text><tspan font-family="Arial" > 8</tspan></text>
	</g>
</g>
<g fill="none" color="black" stroke="currentColor" stroke-width="1.00" stroke-linecap="butt" stroke-linejoin="miter">
</g>
<g fill="none" color="black" stroke="black" stroke-width="0.50" stroke-linecap="butt" stroke-linejoin="miter">
</g>
<g fill="none" color="gray" stroke="currentColor" stroke-width="0.50" stroke-linecap="butt" stroke-linejoin="miter">
	<path stroke='gray' stroke-dasharray='2,4' class="gridline"  d='M547.6,422.4 L547.6,99.1 M547.6,63.1 L547.6,54.1  '/></g>
<g fill="none" color="gray" stroke="gray" stroke-width="1.00" stroke-linecap="butt" stroke-linejoin="miter">
</g>
<g fill="none" color="black" stroke="currentColor" stroke-width="1.00" stroke-linecap="butt" stroke-linejoin="miter">
	<path stroke='black'  d='M547.6,422.4 L547.6,413.4 M547.6,54.1 L547.6,63.1  '/>	<g transform="translate(547.6,444.3)" stroke="none" fill="black" font-family="Arial" font-size="12.00"  text-anchor="middle">
		<text><tspan font-family="Arial" > 9</tspan></text>
	</g>
</g>
<g fill="none" color="black" stroke="currentColor" stroke-width="1.00" stroke-linecap="butt" stroke-linejoin="miter">
</g>
<g fill="none" color="black" stroke="currentColor" stroke-width="1.00" stroke-linecap="butt" stroke-linejoin="miter">
	<path stroke='black'  d='M55.3,54.1 L55.3,422.4 L575.0,422.4 L575.0,54.1 L55.3,54.1 Z  '/></g>
<g fill="none" color="black" stroke="currentColor" stroke-width="1.00" stroke-linecap="butt" stroke-linejoin="miter">
	<g transform="translate(16.3,238.3) rotate(270)" stroke="none" fill="black" font-family="Arial" font-size="12.00"  text-anchor="middle">
		<text><tspan font-family="Arial" >Activity</tspan></text>
	</g>
</g>
<g fill="none" color="black" stroke="currentColor" stroke-width="1.00" stroke-linecap="butt" stroke-linejoin="miter">
	<g transform="translate(315.1,471.3)" stroke="none" fill="black" font-family="Arial" font-size="12.00"  text-anchor="middle">
		<text><tspan font-family="Arial" >Time</tspan></text>
	</g>
</g>
<g fill="none" color="black" stroke="currentColor" stroke-width="1.00" stroke-linecap="butt" stroke-linejoin="miter">
	<g transform="translate(315.1,31.0)" stroke="none" fill="black" font-family="Arial" font-size="12.00"  text-anchor="middle">
		<text><tspan font-family="Arial" >Activity of a radioactive source</tspan></text>
	</g>
</g>
	<g id="gnuplot_plot_1" ><title>Experimental data</title>
<g fill="none" color="black" stroke="currentColor" stroke-width="1.00" stroke-linecap="butt" stroke-linejoin="miter">
	<g transform="translate(507.9,76.0)" stroke="none" fill="black" font-family="Arial" font-size="12.00"  text-anchor="end">
		<text><tspan font-family="Arial" >Experimental data</tspan></text>
	</g>
</g>
<g fill="none" color="black" stroke="currentColor" stroke-width="1.00" stroke-linecap="butt" stroke-linejoin="miter">
	<path stroke='rgb(255,   0,   0)'  d='M516.2,72.1 L558.4,72.1 M516.2,67.6 L516.2,76.6 M558.4,67.6 L558.4,76.6 M81.0,162.7 L81.0,130.8
		M76.5,162.7 L85.5,162.7 M76.5,130.8 L85.5,130.8 M132.4,240.7 L132.4,226.0 M127.9,240.7 L136.9,240.7
		M127.9,226.0 L136.9,226.0 M184.4,283.1 L184.4,249.9 M179.9,283.1 L188.9,283.1 M179.9,249.9 L188.9,249.9
		M235.8,329.7 L235.8,317.4 M231.3,329.7 L240.3,329.7 M231.3,317.4 L240.3,317.4 M287.3,364.7 L287.3,346.3
		M282.8,364.7 L291.8,364.7 M282.8,346.3 L291.8,346.3 M338.7,373.3 L338.7,359.8 M334.2,373.3 L343.2,373.3
		M334.2,359.8 L343.2,359.8 M390.6,396.6 L390.6,380.7 M386.1,396.6 L395.1,396.6 M386.1,380.7 L395.1,380.7
		M442.1,397.8 L442.1,389.3 M437.6,397.8 L446.6,397.8 M437.6,389.3 L446.6,389.3 M493.5,404.0 L493.5,385.6
		M489.0,404.0 L498.0,404.0 M489.0,385.6 L498.0,385.6 M544.9,412.6 L544.9,401.5 M540.4,412.6 L549.4,412.6
		M540.4,401.5 L549.4,401.5  '/>	<use xlink:href='#gpPt0' transform='translate(81.0,146.8) scale(4.50)' color='rgb(255,   0,   0)'/>
	<use xlink:href='#gpPt0' transform='translate(132.4,233.3) scale(4.50)' color='rgb(255,   0,   0)'/>
	<use xlink:href='#gpPt0' transform='translate(184.4,266.5) scale(4.50)' color='rgb(255,   0,   0)'/>
	<use xlink:href='#gpPt0' transform='translate(235.8,323.6) scale(4.50)' color='rgb(255,   0,   0)'/>
	<use xlink:href='#gpPt0' transform='translate(287.3,355.5) scale(4.50)' color='rgb(255,   0,   0)'/>
	<use xlink:href='#gpPt0' transform='translate(338.7,366.5) scale(4.50)' color='rgb(255,   0,   0)'/>
	<use xlink:href='#gpPt0' transform='translate(390.6,388.6) scale(4.50)' color='rgb(255,   0,   0)'/>
	<use xlink:href='#gpPt0' transform='translate(442.1,393.5) scale(4.50)' color='rgb(255,   0,   0)'/>
	<use xlink:href='#gpPt0' transform='translate(493.5,394.8) scale(4.50)' color='rgb(255,   0,   0)'/>
	<use xlink:href='#gpPt0' transform='translate(544.9,407.1) scale(4.50)' color='rgb(255,   0,   0)'/>
	<use xlink:href='#gpPt0' transform='translate(537.3,72.1) scale(4.50)' color='rgb(255,   0,   0)'/>
</g>
	</g>
	<g id="gnuplot_plot_2" ><title>Least squares fit to exponential function</title>
<g fill="none" color="black" stroke="currentColor" stroke-width="1.00" stroke-linecap="butt" stroke-linejoin="miter">
	<g transform="translate(507.9,94.0)" stroke="none" fill="black" font-family="Arial" font-size="12.00"  text-anchor="end">
		<text><tspan font-family="Arial" >Least squares fit to exponential function</tspan></text>
	</g>
</g>
<g fill="none" color="black" stroke="currentColor" stroke-width="1.00" stroke-linecap="butt" stroke-linejoin="miter">
	<path stroke='rgb(  0,   0,   0)'  d='M516.2,90.1 L558.4,90.1 M55.3,102.3 L55.8,103.5 L56.4,104.6 L56.9,105.8 L57.5,106.9 L58.0,108.1
		L58.6,109.2 L59.1,110.3 L59.7,111.5 L60.2,112.6 L60.8,113.7 L61.3,114.8 L61.9,115.9 L62.4,117.0
		L63.0,118.1 L63.5,119.2 L64.1,120.3 L64.6,121.4 L65.1,122.5 L65.7,123.6 L66.2,124.6 L66.8,125.7
		L67.3,126.8 L67.9,127.8 L68.4,128.9 L69.0,130.0 L69.5,131.0 L70.1,132.1 L70.6,133.1 L71.2,134.1
		L71.7,135.2 L72.3,136.2 L72.8,137.2 L73.4,138.3 L73.9,139.3 L74.4,140.3 L75.0,141.3 L75.5,142.3
		L76.1,143.3 L76.6,144.4 L77.2,145.4 L77.7,146.3 L78.3,147.3 L78.8,148.3 L79.4,149.3 L79.9,150.3
		L80.5,151.3 L81.0,152.3 L81.6,153.2 L82.1,154.2 L82.7,155.2 L83.2,156.1 L83.7,157.1 L84.3,158.0
		L84.8,159.0 L85.4,159.9 L85.9,160.9 L86.5,161.8 L87.0,162.7 L87.6,163.7 L88.1,164.6 L88.7,165.5
		L89.2,166.5 L89.8,167.4 L90.3,168.3 L90.9,169.2 L91.4,170.1 L92.0,171.0 L92.5,171.9 L93.0,172.8
		L93.6,173.7 L94.1,174.6 L94.7,175.5 L95.2,176.4 L95.8,177.3 L96.3,178.1 L96.9,179.0 L97.4,179.9
		L98.0,180.8 L98.5,181.6 L99.1,182.5 L99.6,183.4 L100.2,184.2 L100.7,185.1 L101.3,185.9 L101.8,186.8
		L102.3,187.6 L102.9,188.4 L103.4,189.3 L104.0,190.1 L104.5,191.0 L105.1,191.8 L105.6,192.6 L106.2,193.4
		L106.7,194.3 L107.3,195.1 L107.8,195.9 L108.4,196.7 L108.9,197.5 L109.5,198.3 L110.0,199.1 L110.6,199.9
		L111.1,200.7 L111.6,201.5 L112.2,202.3 L112.7,203.1 L113.3,203.9 L113.8,204.6 L114.4,205.4 L114.9,206.2
		L115.5,207.0 L116.0,207.7 L116.6,208.5 L117.1,209.3 L117.7,210.0 L118.2,210.8 L118.8,211.6 L119.3,212.3
		L119.9,213.1 L120.4,213.8 L120.9,214.6 L121.5,215.3 L122.0,216.0 L122.6,216.8 L123.1,217.5 L123.7,218.2
		L124.2,219.0 L124.8,219.7 L125.3,220.4 L125.9,221.1 L126.4,221.9 L127.0,222.6 L127.5,223.3 L128.1,224.0
		L128.6,224.7 L129.2,225.4 L129.7,226.1 L130.2,226.8 L130.8,227.5 L131.3,228.2 L131.9,228.9 L132.4,229.6
		L133.0,230.3 L133.5,231.0 L134.1,231.7 L134.6,232.3 L135.2,233.0 L135.7,233.7 L136.3,234.4 L136.8,235.0
		L137.4,235.7 L137.9,236.4 L138.5,237.0 L139.0,237.7 L139.5,238.3 L140.1,239.0 L140.6,239.7 L141.2,240.3
		L141.7,241.0 L142.3,241.6 L142.8,242.2 L143.4,242.9 L143.9,243.5 L144.5,244.2 L145.0,244.8 L145.6,245.4
		L146.1,246.1 L146.7,246.7 L147.2,247.3 L147.8,247.9 L148.3,248.6 L148.8,249.2 L149.4,249.8 L149.9,250.4
		L150.5,251.0 L151.0,251.6 L151.6,252.2 L152.1,252.8 L152.7,253.4 L153.2,254.0 L153.8,254.6 L154.3,255.2
		L154.9,255.8 L155.4,256.4 L156.0,257.0 L156.5,257.6 L157.1,258.2 L157.6,258.8 L158.1,259.3 L158.7,259.9
		L159.2,260.5 L159.8,261.1 L160.3,261.6 L160.9,262.2 L161.4,262.8 L162.0,263.3 L162.5,263.9 L163.1,264.5
		L163.6,265.0 L164.2,265.6 L164.7,266.1 L165.3,266.7 L165.8,267.3 L166.4,267.8 L166.9,268.3 L167.4,268.9
		L168.0,269.4 L168.5,270.0 L169.1,270.5 L169.6,271.1 L170.2,271.6 L170.7,272.1 L171.3,272.7 L171.8,273.2
		L172.4,273.7 L172.9,274.2 L173.5,274.8 L174.0,275.3 L174.6,275.8 L175.1,276.3 L175.7,276.8 L176.2,277.4
		L176.7,277.9 L177.3,278.4 L177.8,278.9 L178.4,279.4 L178.9,279.9 L179.5,280.4 L180.0,280.9 L180.6,281.4
		L181.1,281.9 L181.7,282.4 L182.2,282.9 L182.8,283.4 L183.3,283.9 L183.9,284.4 L184.4,284.9 L185.0,285.3
		L185.5,285.8 L186.0,286.3 L186.6,286.8 L187.1,287.3 L187.7,287.7 L188.2,288.2 L188.8,288.7 L189.3,289.2
		L189.9,289.6 L190.4,290.1 L191.0,290.6 L191.5,291.0 L192.1,291.5 L192.6,291.9 L193.2,292.4 L193.7,292.9
		L194.3,293.3 L194.8,293.8 L195.3,294.2 L195.9,294.7 L196.4,295.1 L197.0,295.6 L197.5,296.0 L198.1,296.5
		L198.6,296.9 L199.2,297.3 L199.7,297.8 L200.3,298.2 L200.8,298.7 L201.4,299.1 L201.9,299.5 L202.5,300.0
		L203.0,300.4 L203.6,300.8 L204.1,301.2 L204.6,301.7 L205.2,302.1 L205.7,302.5 L206.3,302.9 L206.8,303.4
		L207.4,303.8 L207.9,304.2 L208.5,304.6 L209.0,305.0 L209.6,305.4 L210.1,305.8 L210.7,306.2 L211.2,306.7
		L211.8,307.1 L212.3,307.5 L212.9,307.9 L213.4,308.3 L213.9,308.7 L214.5,309.1 L215.0,309.5 L215.6,309.9
		L216.1,310.2 L216.7,310.6 L217.2,311.0 L217.8,311.4 L218.3,311.8 L218.9,312.2 L219.4,312.6 L220.0,313.0
		L220.5,313.3 L221.1,313.7 L221.6,314.1 L222.2,314.5 L222.7,314.9 L223.2,315.2 L223.8,315.6 L224.3,316.0
		L224.9,316.4 L225.4,316.7 L226.0,317.1 L226.5,317.5 L227.1,317.8 L227.6,318.2 L228.2,318.6 L228.7,318.9
		L229.3,319.3 L229.8,319.6 L230.4,320.0 L230.9,320.3 L231.5,320.7 L232.0,321.1 L232.5,321.4 L233.1,321.8
		L233.6,322.1 L234.2,322.5 L234.7,322.8 L235.3,323.2 L235.8,323.5 L236.4,323.8 L236.9,324.2 L237.5,324.5
		L238.0,324.9 L238.6,325.2 L239.1,325.5 L239.7,325.9 L240.2,326.2 L240.8,326.5 L241.3,326.9 L241.8,327.2
		L242.4,327.5 L242.9,327.9 L243.5,328.2 L244.0,328.5 L244.6,328.8 L245.1,329.2 L245.7,329.5 L246.2,329.8
		L246.8,330.1 L247.3,330.5 L247.9,330.8 L248.4,331.1 L249.0,331.4 L249.5,331.7 L250.1,332.0 L250.6,332.3
		L251.1,332.7 L251.7,333.0 L252.2,333.3 L252.8,333.6 L253.3,333.9 L253.9,334.2 L254.4,334.5 L255.0,334.8
		L255.5,335.1 L256.1,335.4 L256.6,335.7 L257.2,336.0 L257.7,336.3 L258.3,336.6 L258.8,336.9 L259.4,337.2
		L259.9,337.5 L260.4,337.8 L261.0,338.1 L261.5,338.4 L262.1,338.6 L262.6,338.9 L263.2,339.2 L263.7,339.5
		L264.3,339.8 L264.8,340.1 L265.4,340.4 L265.9,340.6 L266.5,340.9 L267.0,341.2 L267.6,341.5 L268.1,341.8
		L268.7,342.0 L269.2,342.3 L269.7,342.6 L270.3,342.9 L270.8,343.1 L271.4,343.4 L271.9,343.7 L272.5,343.9
		L273.0,344.2 L273.6,344.5 L274.1,344.7 L274.7,345.0 L275.2,345.3 L275.8,345.5 L276.3,345.8 L276.9,346.1
		L277.4,346.3 L278.0,346.6 L278.5,346.8 L279.0,347.1 L279.6,347.4 L280.1,347.6 L280.7,347.9 L281.2,348.1
		L281.8,348.4 L282.3,348.6 L282.9,348.9 L283.4,349.1 L284.0,349.4 L284.5,349.6 L285.1,349.9 L285.6,350.1
		L286.2,350.4 L286.7,350.6 L287.3,350.9 L287.8,351.1 L288.3,351.3 L288.9,351.6 L289.4,351.8 L290.0,352.1
		L290.5,352.3 L291.1,352.5 L291.6,352.8 L292.2,353.0 L292.7,353.3 L293.3,353.5 L293.8,353.7 L294.4,354.0
		L294.9,354.2 L295.5,354.4 L296.0,354.6 L296.6,354.9 L297.1,355.1 L297.6,355.3 L298.2,355.6 L298.7,355.8
		L299.3,356.0 L299.8,356.2 L300.4,356.5 L300.9,356.7 L301.5,356.9 L302.0,357.1 L302.6,357.3 L303.1,357.6
		L303.7,357.8 L304.2,358.0 L304.8,358.2 L305.3,358.4 L305.9,358.6 L306.4,358.9 L306.9,359.1 L307.5,359.3
		L308.0,359.5 L308.6,359.7 L309.1,359.9 L309.7,360.1 L310.2,360.3 L310.8,360.6 L311.3,360.8 L311.9,361.0
		L312.4,361.2 L313.0,361.4 L313.5,361.6 L314.1,361.8 L314.6,362.0 L315.2,362.2 L315.7,362.4 L316.2,362.6
		L316.8,362.8 L317.3,363.0 L317.9,363.2 L318.4,363.4 L319.0,363.6 L319.5,363.8 L320.1,364.0 L320.6,364.2
		L321.2,364.4 L321.7,364.6 L322.3,364.8 L322.8,365.0 L323.4,365.1 L323.9,365.3 L324.4,365.5 L325.0,365.7
		L325.5,365.9 L326.1,366.1 L326.6,366.3 L327.2,366.5 L327.7,366.7 L328.3,366.8 L328.8,367.0 L329.4,367.2
		L329.9,367.4 L330.5,367.6 L331.0,367.8 L331.6,367.9 L332.1,368.1 L332.7,368.3 L333.2,368.5 L333.7,368.7
		L334.3,368.8 L334.8,369.0 L335.4,369.2 L335.9,369.4 L336.5,369.5 L337.0,369.7 L337.6,369.9 L338.1,370.1
		L338.7,370.2 L339.2,370.4 L339.8,370.6 L340.3,370.7 L340.9,370.9 L341.4,371.1 L342.0,371.3 L342.5,371.4
		L343.0,371.6 L343.6,371.8 L344.1,371.9 L344.7,372.1 L345.2,372.3 L345.8,372.4 L346.3,372.6 L346.9,372.8
		L347.4,372.9 L348.0,373.1 L348.5,373.2 L349.1,373.4 L349.6,373.6 L350.2,373.7 L350.7,373.9 L351.3,374.0
		L351.8,374.2 L352.3,374.4 L352.9,374.5 L353.4,374.7 L354.0,374.8 L354.5,375.0 L355.1,375.1 L355.6,375.3
		L356.2,375.4 L356.7,375.6 L357.3,375.8 L357.8,375.9 L358.4,376.1 L358.9,376.2 L359.5,376.4 L360.0,376.5
		L360.6,376.7 L361.1,376.8 L361.6,377.0 L362.2,377.1 L362.7,377.2 L363.3,377.4 L363.8,377.5 L364.4,377.7
		L364.9,377.8 L365.5,378.0 L366.0,378.1 L366.6,378.3 L367.1,378.4 L367.7,378.5 L368.2,378.7 L368.8,378.8
		L369.3,379.0 L369.9,379.1 L370.4,379.3 L370.9,379.4 L371.5,379.5 L372.0,379.7 L372.6,379.8 L373.1,379.9
		L373.7,380.1 L374.2,380.2 L374.8,380.4 L375.3,380.5 L375.9,380.6 L376.4,380.8 L377.0,380.9 L377.5,381.0
		L378.1,381.2 L378.6,381.3 L379.2,381.4 L379.7,381.6 L380.2,381.7 L380.8,381.8 L381.3,381.9 L381.9,382.1
		L382.4,382.2 L383.0,382.3 L383.5,382.5 L384.1,382.6 L384.6,382.7 L385.2,382.8 L385.7,383.0 L386.3,383.1
		L386.8,383.2 L387.4,383.3 L387.9,383.5 L388.5,383.6 L389.0,383.7 L389.5,383.8 L390.1,384.0 L390.6,384.1
		L391.2,384.2 L391.7,384.3 L392.3,384.4 L392.8,384.6 L393.4,384.7 L393.9,384.8 L394.5,384.9 L395.0,385.0
		L395.6,385.2 L396.1,385.3 L396.7,385.4 L397.2,385.5 L397.8,385.6 L398.3,385.7 L398.8,385.9 L399.4,386.0
		L399.9,386.1 L400.5,386.2 L401.0,386.3 L401.6,386.4 L402.1,386.5 L402.7,386.7 L403.2,386.8 L403.8,386.9
		L404.3,387.0 L404.9,387.1 L405.4,387.2 L406.0,387.3 L406.5,387.4 L407.1,387.5 L407.6,387.6 L408.1,387.8
		L408.7,387.9 L409.2,388.0 L409.8,388.1 L410.3,388.2 L410.9,388.3 L411.4,388.4 L412.0,388.5 L412.5,388.6
		L413.1,388.7 L413.6,388.8 L414.2,388.9 L414.7,389.0 L415.3,389.1 L415.8,389.2 L416.4,389.3 L416.9,389.4
		L417.4,389.5 L418.0,389.6 L418.5,389.7 L419.1,389.8 L419.6,389.9 L420.2,390.0 L420.7,390.1 L421.3,390.2
		L421.8,390.3 L422.4,390.4 L422.9,390.5 L423.5,390.6 L424.0,390.7 L424.6,390.8 L425.1,390.9 L425.7,391.0
		L426.2,391.1 L426.7,391.2 L427.3,391.3 L427.8,391.4 L428.4,391.5 L428.9,391.6 L429.5,391.7 L430.0,391.8
		L430.6,391.9 L431.1,392.0 L431.7,392.1 L432.2,392.2 L432.8,392.2 L433.3,392.3 L433.9,392.4 L434.4,392.5
		L435.0,392.6 L435.5,392.7 L436.0,392.8 L436.6,392.9 L437.1,393.0 L437.7,393.1 L438.2,393.1 L438.8,393.2
		L439.3,393.3 L439.9,393.4 L440.4,393.5 L441.0,393.6 L441.5,393.7 L442.1,393.8 L442.6,393.8 L443.2,393.9
		L443.7,394.0 L444.3,394.1 L444.8,394.2 L445.3,394.3 L445.9,394.4 L446.4,394.4 L447.0,394.5 L447.5,394.6
		L448.1,394.7 L448.6,394.8 L449.2,394.9 L449.7,394.9 L450.3,395.0 L450.8,395.1 L451.4,395.2 L451.9,395.3
		L452.5,395.3 L453.0,395.4 L453.6,395.5 L454.1,395.6 L454.6,395.7 L455.2,395.7 L455.7,395.8 L456.3,395.9
		L456.8,396.0 L457.4,396.1 L457.9,396.1 L458.5,396.2 L459.0,396.3 L459.6,396.4 L460.1,396.4 L460.7,396.5
		L461.2,396.6 L461.8,396.7 L462.3,396.7 L462.9,396.8 L463.4,396.9 L463.9,397.0 L464.5,397.0 L465.0,397.1
		L465.6,397.2 L466.1,397.3 L466.7,397.3 L467.2,397.4 L467.8,397.5 L468.3,397.6 L468.9,397.6 L469.4,397.7
		L470.0,397.8 L470.5,397.8 L471.1,397.9 L471.6,398.0 L472.2,398.1 L472.7,398.1 L473.2,398.2 L473.8,398.3
		L474.3,398.3 L474.9,398.4 L475.4,398.5 L476.0,398.5 L476.5,398.6 L477.1,398.7 L477.6,398.7 L478.2,398.8
		L478.7,398.9 L479.3,398.9 L479.8,399.0 L480.4,399.1 L480.9,399.1 L481.5,399.2 L482.0,399.3 L482.5,399.3
		L483.1,399.4 L483.6,399.5 L484.2,399.5 L484.7,399.6 L485.3,399.7 L485.8,399.7 L486.4,399.8 L486.9,399.9
		L487.5,399.9 L488.0,400.0 L488.6,400.1 L489.1,400.1 L489.7,400.2 L490.2,400.2 L490.8,400.3 L491.3,400.4
		L491.8,400.4 L492.4,400.5 L492.9,400.6 L493.5,400.6 L494.0,400.7 L494.6,400.7 L495.1,400.8 L495.7,400.9
		L496.2,400.9 L496.8,401.0 L497.3,401.0 L497.9,401.1 L498.4,401.2 L499.0,401.2 L499.5,401.3 L500.1,401.3
		L500.6,401.4 L501.1,401.4 L501.7,401.5 L502.2,401.6 L502.8,401.6 L503.3,401.7 L503.9,401.7 L504.4,401.8
		L505.0,401.8 L505.5,401.9 L506.1,402.0 L506.6,402.0 L507.2,402.1 L507.7,402.1 L508.3,402.2 L508.8,402.2
		L509.4,402.3 L509.9,402.3 L510.4,402.4 L511.0,402.5 L511.5,402.5 L512.1,402.6 L512.6,402.6 L513.2,402.7
		L513.7,402.7 L514.3,402.8 L514.8,402.8 L515.4,402.9 L515.9,402.9 L516.5,403.0 L517.0,403.0 L517.6,403.1
		L518.1,403.1 L518.7,403.2 L519.2,403.2 L519.7,403.3 L520.3,403.4 L520.8,403.4 L521.4,403.5 L521.9,403.5
		L522.5,403.6 L523.0,403.6 L523.6,403.7 L524.1,403.7 L524.7,403.8 L525.2,403.8 L525.8,403.9 L526.3,403.9
		L526.9,403.9 L527.4,404.0 L528.0,404.0 L528.5,404.1 L529.0,404.1 L529.6,404.2 L530.1,404.2 L530.7,404.3
		L531.2,404.3 L531.8,404.4 L532.3,404.4 L532.9,404.5 L533.4,404.5 L534.0,404.6 L534.5,404.6 L535.1,404.7
		L535.6,404.7 L536.2,404.8 L536.7,404.8 L537.3,404.8 L537.8,404.9 L538.3,404.9 L538.9,405.0 L539.4,405.0
		L540.0,405.1 L540.5,405.1 L541.1,405.2 L541.6,405.2 L542.2,405.2 L542.7,405.3 L543.3,405.3 L543.8,405.4
		L544.4,405.4 L544.9,405.5 L545.5,405.5 L546.0,405.6 L546.6,405.6 L547.1,405.6 L547.6,405.7 L548.2,405.7
		L548.7,405.8 L549.3,405.8 L549.8,405.8 L550.4,405.9 L550.9,405.9 L551.5,406.0 L552.0,406.0 L552.6,406.1
		L553.1,406.1 L553.7,406.1 L554.2,406.2 L554.8,406.2 L555.3,406.3 L555.9,406.3 L556.4,406.3 L556.9,406.4
		L557.5,406.4 L558.0,406.5 L558.6,406.5 L559.1,406.5 L559.7,406.6 L560.2,406.6 L560.8,406.7 L561.3,406.7
		L561.9,406.7 L562.4,406.8 L563.0,406.8 L563.5,406.8 L564.1,406.9 L564.6,406.9 L565.2,407.0 L565.7,407.0
		L566.2,407.0 L566.8,407.1 L567.3,407.1 L567.9,407.1 L568.4,407.2 L569.0,407.2 L569.5,407.3 L570.1,407.3
		L570.6,407.3 L571.2,407.4 L571.7,407.4 L572.3,407.4  '/></g>
	</g>
<g fill="none" color="#FFFFFF" stroke="rgb(  0,   0,   0)" stroke-width="2.00" stroke-linecap="butt" stroke-linejoin="miter">
</g>
<g fill="none" color="black" stroke="currentColor" stroke-width="2.00" stroke-linecap="butt" stroke-linejoin="miter">
</g>
<g fill="none" color="black" stroke="black" stroke-width="1.00" stroke-linecap="butt" stroke-linejoin="miter">
</g>
<g fill="none" color="black" stroke="currentColor" stroke-width="1.00" stroke-linecap="butt" stroke-linejoin="miter">
	<path stroke='black'  d='M55.3,54.1 L55.3,422.4 L575.0,422.4 L575.0,54.1 L55.3,54.1 Z  '/></g>
<g fill="none" color="black" stroke="currentColor" stroke-width="1.00" stroke-linecap="butt" stroke-linejoin="miter">
</g>
</g>
</svg>

