0.1 -15.3 1.04
1.33 0.32 0.594
2.55 2.45 0.983
3.78 2.75 0.998
5 2.27 1.11
6.22 1.35 0.398
7.45 0.157 0.535
8.68 -1.23 0.968
9.9 -2.75 0.478


0.1 -15.3058
0.149 -12.6159
0.198 -10.7261
0.247 -9.27816
0.296 -8.11087
0.345 -7.13783
0.394 -6.30725
0.443 -5.58564
0.492 -4.95008
0.541 -4.3842
0.59 -3.87591
0.639 -3.41601
0.688 -2.99733
0.737 -2.61421
0.786 -2.26205
0.835 -1.93711
0.884 -1.63629
0.933 -1.35698
0.982 -1.09698
1.031 -0.854408
1.08 -0.627643
1.129 -0.415283
1.178 -0.216103
1.227 -0.0290288
1.276 0.146888
1.325 0.312488
1.374 0.468521
1.423 0.615657
1.472 0.7545
1.521 0.885592
1.57 1.00943
1.619 1.12645
1.668 1.23706
1.717 1.34164
1.766 1.44052
1.815 1.53402
1.864 1.62242
1.913 1.70599
1.962 1.78497
2.011 1.85959
2.06 1.93006
2.109 1.99657
2.158 2.05931
2.207 2.11844
2.256 2.17413
2.305 2.22651
2.354 2.27574
2.403 2.32194
2.452 2.36523
2.501 2.40573
2.55 2.44354
2.599 2.47877
2.648 2.51152
2.697 2.54187
2.746 2.56991
2.795 2.59573
2.844 2.6194
2.893 2.641
2.942 2.66058
2.991 2.67823
3.04 2.69401
3.089 2.70796
3.138 2.72016
3.187 2.73065
3.236 2.73949
3.285 2.74673
3.334 2.75241
3.383 2.75658
3.432 2.75928
3.481 2.76056
3.53 2.76045
3.579 2.759
3.628 2.75623
3.677 2.75219
3.726 2.74691
3.775 2.74042
3.824 2.73275
3.873 2.72394
3.922 2.714
3.971 2.70298
4.02 2.69088
4.069 2.67775
4.118 2.66361
4.167 2.64848
4.216 2.63238
4.265 2.61533
4.314 2.59737
4.363 2.5785
4.412 2.55875
4.461 2.53813
4.51 2.51668
4.559 2.49439
4.608 2.4713
4.657 2.44742
4.706 2.42277
4.755 2.39736
4.804 2.3712
4.853 2.34432
4.902 2.31673
4.951 2.28843
5 2.25946
5.049 2.22981
5.098 2.1995
5.147 2.16855
5.196 2.13696
5.245 2.10475
5.294 2.07193
5.343 2.03851
5.392 2.00451
5.441 1.96993
5.49 1.93478
5.539 1.89907
5.588 1.86281
5.637 1.82602
5.686 1.7887
5.735 1.75086
5.784 1.71251
5.833 1.67366
5.882 1.63432
5.931 1.59449
5.98 1.55418
6.029 1.51341
6.078 1.47217
6.127 1.43048
6.176 1.38834
6.225 1.34576
6.274 1.30274
6.323 1.2593
6.372 1.21545
6.421 1.17117
6.47 1.12649
6.519 1.08141
6.568 1.03594
6.617 0.990073
6.666 0.943826
6.715 0.8972
6.764 0.850202
6.813 0.802837
6.862 0.755111
6.911 0.707028
6.96 0.658594
7.009 0.609813
7.058 0.560691
7.107 0.511232
7.156 0.46144
7.205 0.411321
7.254 0.360878
7.303 0.310116
7.352 0.25904
7.401 0.207653
7.45 0.155959
7.499 0.103964
7.548 0.0516692
7.597 -0.00091971
7.646 -0.0537995
7.695 -0.106966
7.744 -0.160417
7.793 -0.214147
7.842 -0.268154
7.891 -0.322433
7.94 -0.376982
7.989 -0.431798
8.038 -0.486876
8.087 -0.542214
8.136 -0.597809
8.185 -0.653657
8.234 -0.709756
8.283 -0.766102
8.332 -0.822694
8.381 -0.879526
8.43 -0.936598
8.479 -0.993906
8.528 -1.05145
8.577 -1.10922
8.626 -1.16722
8.675 -1.22545
8.724 -1.2839
8.773 -1.34257
8.822 -1.40145
8.871 -1.46056
8.92 -1.51987
8.969 -1.5794
9.018 -1.63914
9.067 -1.69908
9.116 -1.75923
9.165 -1.81958
9.214 -1.88012
9.263 -1.94087
9.312 -2.00181
9.361 -2.06295
9.41 -2.12427
9.459 -2.18579
9.508 -2.2475
9.557 -2.30939
9.606 -2.37146
9.655 -2.43371
9.704 -2.49615
9.753 -2.55876
9.802 -2.62155
9.851 -2.68452
