\relax 
\@writefile{toc}{\contentsline {section}{\numberline {1}Problem description}{1}\protected@file@percent }
\@writefile{toc}{\contentsline {section}{\numberline {2}Solution}{1}\protected@file@percent }
\newlabel{plot}{{2}{2}}
\@writefile{lof}{\contentsline {figure}{\numberline {1}{\ignorespaces A comparison of my implementation of atan to atan(x) from math.h.}}{2}\protected@file@percent }
